f1/my_counter.vcd
$date
	Tue Jan  5 00:00:34 2021
$end
$version
	Icarus Verilog
$end
$timescale
	10ps
$end
$scope module t_my_counter $end
$var wire 1 ! Q_C $end
$var wire 1 " Q_B $end
$var wire 1 # Q_A $end
$var reg 1 $ En $end
$var reg 1 % rst $end
$scope module ff1 $end
$var wire 1 & C_1 $end
$var wire 1 # Q_A $end
$var wire 1 " Q_B $end
$var wire 1 ! Q_C $end
$var wire 1 $ clk $end
$var wire 1 ' not_A $end
$var wire 1 ( not_B $end
$var wire 1 ) not_C $end
$var wire 1 * not_rst $end
$var wire 1 + nxt_A $end
$var wire 1 , nxt_B $end
$var wire 1 - nxt_C $end
$var wire 1 % rst $end
$var wire 1 . C $end
$var wire 1 / B $end
$var wire 1 0 A $end
$scope module DFFA $end
$var wire 1 + D $end
$var wire 1 $ clk $end
$var wire 1 1 not_clk $end
$var wire 1 2 tmp $end
$var wire 1 0 Q $end
$scope module first_latch $end
$var wire 1 + D $end
$var wire 1 1 En $end
$var wire 1 2 Q $end
$var wire 1 3 Q_bar $end
$var wire 1 4 down_wire $end
$var wire 1 5 not_D $end
$var wire 1 6 up_wire $end
$upscope $end
$scope module second_latch $end
$var wire 1 2 D $end
$var wire 1 $ En $end
$var wire 1 0 Q $end
$var wire 1 7 Q_bar $end
$var wire 1 8 down_wire $end
$var wire 1 9 not_D $end
$var wire 1 : up_wire $end
$upscope $end
$upscope $end
$scope module DFFB $end
$var wire 1 , D $end
$var wire 1 $ clk $end
$var wire 1 ; not_clk $end
$var wire 1 < tmp $end
$var wire 1 / Q $end
$scope module first_latch $end
$var wire 1 , D $end
$var wire 1 ; En $end
$var wire 1 < Q $end
$var wire 1 = Q_bar $end
$var wire 1 > down_wire $end
$var wire 1 ? not_D $end
$var wire 1 @ up_wire $end
$upscope $end
$scope module second_latch $end
$var wire 1 < D $end
$var wire 1 $ En $end
$var wire 1 / Q $end
$var wire 1 A Q_bar $end
$var wire 1 B down_wire $end
$var wire 1 C not_D $end
$var wire 1 D up_wire $end
$upscope $end
$upscope $end
$scope module DFFC $end
$var wire 1 - D $end
$var wire 1 $ clk $end
$var wire 1 E not_clk $end
$var wire 1 F tmp $end
$var wire 1 . Q $end
$scope module first_latch $end
$var wire 1 - D $end
$var wire 1 E En $end
$var wire 1 F Q $end
$var wire 1 G Q_bar $end
$var wire 1 H down_wire $end
$var wire 1 I not_D $end
$var wire 1 J up_wire $end
$upscope $end
$scope module second_latch $end
$var wire 1 F D $end
$var wire 1 $ En $end
$var wire 1 . Q $end
$var wire 1 K Q_bar $end
$var wire 1 L down_wire $end
$var wire 1 M not_D $end
$var wire 1 N up_wire $end
$upscope $end
$upscope $end
$upscope $end
$upscope $end
$enddefinitions $end
#0
$dumpvars
xN
xM
xL
xK
0J
1I
0H
xG
xF
0E
xD
xC
xB
xA
0@
1?
0>
x=
x<
0;
x:
x9
x8
x7
06
05
04
x3
x2
01
x0
x/
x.
0-
0,
1+
0*
1)
1(
1'
0&
1%
1$
0#
0"
0!
$end
#500
09
12
1=
1C
1G
1M
03
0<
0F
14
1@
1J
11
0:
08
1;
0D
0B
1E
0N
0L
0$
#1000
15
0I
1?
0+
10
1A
1K
1-
0'
0&
1(
0,
1)
04
07
0@
0/
0J
0.
1#
0"
0!
01
18
0;
1D
0E
1N
1*
1$
0%
#1500
0M
13
19
1F
02
0G
16
1@
1H
11
08
1;
0D
1E
0N
0$
#2000
0?
1I
1,
0)
0-
1'
1!
17
0#
1.
06
00
0@
0H
0K
01
1:
0;
1D
0E
1L
1$
#2500
0C
1<
1G
1M
0=
0F
16
1>
1J
11
0:
1;
0D
1E
0L
0$
#3000
0I
05
1-
0(
1?
1+
1&
1"
0,
1)
1/
1K
0!
06
0>
0A
0J
0.
01
1:
0;
1B
0E
1N
1$
#3500
09
0M
12
1=
1C
1F
03
0<
0G
14
1@
1H
11
0:
1;
0B
1E
0N
0$
#4000
15
0?
0+
0'
1,
0)
1#
0&
1(
1!
10
1A
0"
1.
04
07
0@
0/
0H
0K
01
18
0;
1D
0E
1L
1$
#4500
0C
13
19
1<
02
0=
16
1>
1H
11
08
1;
0D
1E
0L
0$
#5000
1?
0,
1I
0(
0-
1'
1"
17
0#
1/
06
00
0>
0A
0H
01
1:
0;
1B
0E
1L
1$
#5500
1=
1C
1G
1M
0<
0F
16
1@
1J
11
0:
1;
0B
1E
0L
0$
#6000
05
1+
1(
1)
1A
0"
1K
0!
06
0@
0/
0J
0.
01
1:
0;
1D
0E
1N
1$
#6500
09
12
03
14
1@
1J
11
0:
1;
0D
1E
0N
0$
#7000
15
0I
0+
1-
0'
1#
10
04
07
0@
0J
01
18
0;
1D
0E
1N
1$
#7500
0M
13
19
1F
02
0G
16
1@
1H
11
08
1;
0D
1E
0N
0$
#8000
0?
1I
1,
0)
0-
1'
1!
17
0#
1.
06
00
0@
0H
0K
01
1:
0;
1D
0E
1L
1$
#8500
0C
1<
1G
1M
0=
0F
16
1>
1J
11
0:
1;
0D
1E
0L
0$
#9000
0I
05
1-
0(
1?
1+
1&
1"
0,
1)
1/
1K
0!
06
0>
0A
0J
0.
01
1:
0;
1B
0E
1N
1$
#9500
09
0M
12
1=
1C
1F
03
0<
0G
14
1@
1H
11
0:
1;
0B
1E
0N
0$
#10000
15
0?
0+
0'
1,
0)
1#
0&
1(
1!
10
1A
0"
1.
04
07
0@
0/
0H
0K
01
18
0;
1D
0E
1L
1$
#10500
0C
13
19
1<
02
0=
16
1>
1H
11
08
1;
0D
1E
0L
0$
#11000
1?
0,
1I
0(
0-
1'
1"
17
0#
1/
06
00
0>
0A
0H
01
1:
0;
1B
0E
1L
1$
#11500
1=
1C
1G
1M
0<
0F
16
1@
1J
11
0:
1;
0B
1E
0L
0$
#12000
05
1+
1(
1)
1A
0"
1K
0!
06
0@
0/
0J
0.
01
1:
0;
1D
0E
1N
1$
#12500
09
12
03
14
1@
1J
11
0:
1;
0D
1E
0N
0$
#13000
15
0I
0+
1-
0'
1#
10
04
07
0@
0J
01
18
0;
1D
0E
1N
1$
#13500
0M
13
19
1F
02
0G
16
1@
1H
11
08
1;
0D
1E
0N
0$
#14000
0?
1I
1,
0)
0-
1'
1!
17
0#
1.
06
00
0@
0H
0K
01
1:
0;
1D
0E
1L
1$
#14500
0C
1<
1G
1M
0=
0F
16
1>
1J
11
0:
1;
0D
1E
0L
0$
#15000
0I
05
1-
0(
1?
1+
1&
1"
0,
1)
1/
1K
0!
06
0>
0A
0J
0.
01
1:
0;
1B
0E
1N
1$
#15500
09
0M
12
1=
1C
1F
03
0<
0G
14
1@
1H
11
0:
1;
0B
1E
0N
0$
#16000
15
0?
0+
0'
1,
0)
1#
0&
1(
1!
10
1A
0"
1.
04
07
0@
0/
0H
0K
01
18
0;
1D
0E
1L
1$
#16500
0C
13
19
1<
02
0=
16
1>
1H
11
08
1;
0D
1E
0L
0$
#17000
1?
0,
1I
0(
0-
1'
1"
17
0#
1/
06
00
0>
0A
0H
01
1:
0;
1B
0E
1L
1$
#17500
1=
1C
1G
1M
0<
0F
16
1@
1J
11
0:
1;
0B
1E
0L
0$
#18000
05
1+
1(
1)
1A
0"
1K
0!
06
0@
0/
0J
0.
01
1:
0;
1D
0E
1N
1$
#18500
09
12
03
14
1@
1J
11
0:
1;
0D
1E
0N
0$
#19000
15
0I
0+
1-
0'
1#
10
04
07
0@
0J
01
18
0;
1D
0E
1N
1$
#19500
0M
13
19
1F
02
0G
16
1@
1H
11
08
1;
0D
1E
0N
0$
#20000
0?
1I
1,
0)
0-
1'
1!
17
0#
1.
06
00
0@
0H
0K
01
1:
0;
1D
0E
1L
1$
#20500
0C
1<
1G
1M
0=
0F
16
1>
1J
11
0:
1;
0D
1E
0L
0$
#21000
0I
05
1-
0(
1?
1+
1&
1"
0,
1)
1/
1K
0!
06
0>
0A
0J
0.
01
1:
0;
1B
0E
1N
1$
#21500
09
0M
12
1=
1C
1F
03
0<
0G
14
1@
1H
11
0:
1;
0B
1E
0N
0$
#22000
15
0?
0+
0'
1,
0)
1#
0&
1(
1!
10
1A
0"
1.
04
07
0@
0/
0H
0K
01
18
0;
1D
0E
1L
1$
#22500
0C
13
19
1<
02
0=
16
1>
1H
11
08
1;
0D
1E
0L
0$
#23000
1?
0,
1I
0(
0-
1'
1"
17
0#
1/
06
00
0>
0A
0H
01
1:
0;
1B
0E
1L
1$
#23500
1=
1C
1G
1M
0<
0F
16
1@
1J
11
0:
1;
0B
1E
0L
0$
#24000
05
1+
1(
1)
1A
0"
1K
0!
06
0@
0/
0J
0.
01
1:
0;
1D
0E
1N
1$
#24500
09
12
03
14
1@
1J
11
0:
1;
0D
1E
0N
0$
#25000
15
0I
0+
1-
0'
1#
10
04
07
0@
0J
01
18
0;
1D
0E
1N
1$
#25500
0M
13
19
1F
02
0G
16
1@
1H
11
08
1;
0D
1E
0N
0$
#26000
0?
1I
1,
0)
0-
1'
1!
17
0#
1.
06
00
0@
0H
0K
01
1:
0;
1D
0E
1L
1$
#26500
0C
1<
1G
1M
0=
0F
16
1>
1J
11
0:
1;
0D
1E
0L
0$
#27000
0I
05
1-
0(
1?
1+
1&
1"
0,
1)
1/
1K
0!
06
0>
0A
0J
0.
01
1:
0;
1B
0E
1N
1$
#27500
09
0M
12
1=
1C
1F
03
0<
0G
14
1@
1H
11
0:
1;
0B
1E
0N
0$
#28000
15
0?
0+
0'
1,
0)
1#
0&
1(
1!
10
1A
0"
1.
04
07
0@
0/
0H
0K
01
18
0;
1D
0E
1L
1$
#28500
0C
13
19
1<
02
0=
16
1>
1H
11
08
1;
0D
1E
0L
0$
#29000
1?
0,
1I
0(
0-
1'
1"
17
0#
1/
06
00
0>
0A
0H
01
1:
0;
1B
0E
1L
1$
#29500
1=
1C
1G
1M
0<
0F
16
1@
1J
11
0:
1;
0B
1E
0L
0$
#30000
05
1+
1(
1)
1A
0"
1K
0!
06
0@
0/
0J
0.
01
1:
0;
1D
0E
1N
1$
#30500
09
12
03
14
1@
1J
11
0:
1;
0D
1E
0N
0$
#31000
15
0I
0+
1-
0'
1#
10
04
07
0@
0J
01
18
0;
1D
0E
1N
1$
