f2/my_counter.vcd
$date
	Tue Jan  5 00:37:51 2021
$end
$version
	Icarus Verilog
$end
$timescale
	10ps
$end
$scope module t_my_counter $end
$var wire 1 ! Q_C $end
$var wire 1 " Q_B $end
$var wire 1 # Q_A $end
$var reg 1 $ En $end
$var reg 1 % rst $end
$scope module ff1 $end
$var wire 1 & A_1 $end
$var wire 1 ' A_2 $end
$var wire 1 ( A_3 $end
$var wire 1 ) B_1 $end
$var wire 1 * C_1 $end
$var wire 1 + C_2 $end
$var wire 1 # Q_A $end
$var wire 1 " Q_B $end
$var wire 1 ! Q_C $end
$var wire 1 $ clk $end
$var wire 1 , not_A $end
$var wire 1 - not_B $end
$var wire 1 . not_C $end
$var wire 1 / not_rst $end
$var wire 1 0 nxt_A $end
$var wire 1 1 nxt_B $end
$var wire 1 2 nxt_C $end
$var wire 1 % rst $end
$var wire 1 3 C $end
$var wire 1 4 B $end
$var wire 1 5 A $end
$scope module DFFA $end
$var wire 1 0 D $end
$var wire 1 $ clk $end
$var wire 1 6 not_clk $end
$var wire 1 7 tmp $end
$var wire 1 5 Q $end
$scope module first_latch $end
$var wire 1 0 D $end
$var wire 1 6 En $end
$var wire 1 7 Q $end
$var wire 1 8 Q_bar $end
$var wire 1 9 down_wire $end
$var wire 1 : not_D $end
$var wire 1 ; up_wire $end
$upscope $end
$scope module second_latch $end
$var wire 1 7 D $end
$var wire 1 $ En $end
$var wire 1 5 Q $end
$var wire 1 < Q_bar $end
$var wire 1 = down_wire $end
$var wire 1 > not_D $end
$var wire 1 ? up_wire $end
$upscope $end
$upscope $end
$scope module DFFB $end
$var wire 1 1 D $end
$var wire 1 $ clk $end
$var wire 1 @ not_clk $end
$var wire 1 A tmp $end
$var wire 1 4 Q $end
$scope module first_latch $end
$var wire 1 1 D $end
$var wire 1 @ En $end
$var wire 1 A Q $end
$var wire 1 B Q_bar $end
$var wire 1 C down_wire $end
$var wire 1 D not_D $end
$var wire 1 E up_wire $end
$upscope $end
$scope module second_latch $end
$var wire 1 A D $end
$var wire 1 $ En $end
$var wire 1 4 Q $end
$var wire 1 F Q_bar $end
$var wire 1 G down_wire $end
$var wire 1 H not_D $end
$var wire 1 I up_wire $end
$upscope $end
$upscope $end
$scope module DFFC $end
$var wire 1 2 D $end
$var wire 1 $ clk $end
$var wire 1 J not_clk $end
$var wire 1 K tmp $end
$var wire 1 3 Q $end
$scope module first_latch $end
$var wire 1 2 D $end
$var wire 1 J En $end
$var wire 1 K Q $end
$var wire 1 L Q_bar $end
$var wire 1 M down_wire $end
$var wire 1 N not_D $end
$var wire 1 O up_wire $end
$upscope $end
$scope module second_latch $end
$var wire 1 K D $end
$var wire 1 $ En $end
$var wire 1 3 Q $end
$var wire 1 P Q_bar $end
$var wire 1 Q down_wire $end
$var wire 1 R not_D $end
$var wire 1 S up_wire $end
$upscope $end
$upscope $end
$upscope $end
$upscope $end
$enddefinitions $end
#0
$dumpvars
xS
xR
xQ
xP
0O
1N
0M
xL
xK
0J
xI
xH
xG
xF
0E
0D
0C
xB
xA
0@
x?
x>
x=
x<
0;
0:
09
x8
x7
06
x5
x4
x3
02
11
10
0/
1.
1-
1,
0+
0*
0)
1(
0'
1&
1%
1$
0#
0"
0!
$end
#500
0>
0H
17
1A
1L
1R
08
0B
0K
19
1C
1O
16
0?
0=
1@
0I
0G
1J
0S
0Q
0$
#1000
1:
00
1N
0D
0(
02
11
0&
15
14
1P
0,
0)
0+
0-
0'
0*
1.
09
0<
0C
0F
0O
03
1#
1"
0!
06
1=
0@
1G
0J
1S
1/
1$
0%
#1500
18
1>
07
1;
1C
1O
16
0=
1@
0G
1J
0S
0$
#2000
0N
12
1+
1)
1,
1<
0#
0;
05
0C
0O
06
1?
0@
1G
0J
1S
1$
#2500
0R
1K
0L
1;
1C
1M
16
0?
1@
0G
1J
0S
0$
#3000
0:
10
1'
0.
1!
13
0;
0C
0M
0P
06
1?
0@
1G
0J
1Q
1$
#3500
0>
17
08
19
1C
1M
16
0?
1@
0G
1J
0Q
0$
#4000
1D
01
0+
0)
1*
0,
1#
15
09
0<
0C
0M
06
1=
0@
1G
0J
1Q
1$
#4500
1B
1H
0A
19
1E
1M
16
0=
1@
0G
1J
0Q
0$
#5000
1:
00
0'
1-
1F
0"
09
0E
04
0M
06
1=
0@
1I
0J
1Q
1$
#5500
18
1>
07
1;
1E
1M
16
0=
1@
0I
1J
0Q
0$
#6000
0:
1N
10
02
1(
0*
1,
1<
0#
0;
05
0E
0M
06
1?
0@
1I
0J
1Q
1$
#6500
0>
17
1L
1R
08
0K
19
1E
1O
16
0?
1@
0I
1J
0Q
0$
#7000
0(
0D
0,
11
1&
1#
1.
15
1P
0!
09
0<
0E
0O
03
06
1=
0@
1I
0J
1S
1$
#7500
0H
1A
0B
19
1C
1O
16
0=
1@
0I
1J
0S
0$
#8000
1:
00
0&
0-
1"
14
09
0C
0F
0O
06
1=
0@
1G
0J
1S
1$
#8500
18
1>
07
1;
1C
1O
16
0=
1@
0G
1J
0S
0$
#9000
0N
12
1+
1)
1,
1<
0#
0;
05
0C
0O
06
1?
0@
1G
0J
1S
1$
#9500
0R
1K
0L
1;
1C
1M
16
0?
1@
0G
1J
0S
0$
#10000
0:
10
1'
0.
1!
13
0;
0C
0M
0P
06
1?
0@
1G
0J
1Q
1$
#10500
0>
17
08
19
1C
1M
16
0?
1@
0G
1J
0Q
0$
#11000
1D
01
0+
0)
1*
0,
1#
15
09
0<
0C
0M
06
1=
0@
1G
0J
1Q
1$
#11500
1B
1H
0A
19
1E
1M
16
0=
1@
0G
1J
0Q
0$
#12000
1:
00
0'
1-
1F
0"
09
0E
04
0M
06
1=
0@
1I
0J
1Q
1$
#12500
18
1>
07
1;
1E
1M
16
0=
1@
0I
1J
0Q
0$
#13000
0:
1N
10
02
1(
0*
1,
1<
0#
0;
05
0E
0M
06
1?
0@
1I
0J
1Q
1$
#13500
0>
17
1L
1R
08
0K
19
1E
1O
16
0?
1@
0I
1J
0Q
0$
#14000
0(
0D
0,
11
1&
1#
1.
15
1P
0!
09
0<
0E
0O
03
06
1=
0@
1I
0J
1S
1$
#14500
0H
1A
0B
19
1C
1O
16
0=
1@
0I
1J
0S
0$
#15000
1:
00
0&
0-
1"
14
09
0C
0F
0O
06
1=
0@
1G
0J
1S
1$
#15500
18
1>
07
1;
1C
1O
16
0=
1@
0G
1J
0S
0$
#16000
0N
12
1+
1)
1,
1<
0#
0;
05
0C
0O
06
1?
0@
1G
0J
1S
1$
#16500
0R
1K
0L
1;
1C
1M
16
0?
1@
0G
1J
0S
0$
#17000
0:
10
1'
0.
1!
13
0;
0C
0M
0P
06
1?
0@
1G
0J
1Q
1$
#17500
0>
17
08
19
1C
1M
16
0?
1@
0G
1J
0Q
0$
#18000
1D
01
0+
0)
1*
0,
1#
15
09
0<
0C
0M
06
1=
0@
1G
0J
1Q
1$
#18500
1B
1H
0A
19
1E
1M
16
0=
1@
0G
1J
0Q
0$
#19000
1:
00
0'
1-
1F
0"
09
0E
04
0M
06
1=
0@
1I
0J
1Q
1$
#19500
18
1>
07
1;
1E
1M
16
0=
1@
0I
1J
0Q
0$
#20000
0:
1N
10
02
1(
0*
1,
1<
0#
0;
05
0E
0M
06
1?
0@
1I
0J
1Q
1$
#20500
0>
17
1L
1R
08
0K
19
1E
1O
16
0?
1@
0I
1J
0Q
0$
#21000
0(
0D
0,
11
1&
1#
1.
15
1P
0!
09
0<
0E
0O
03
06
1=
0@
1I
0J
1S
1$
#21500
0H
1A
0B
19
1C
1O
16
0=
1@
0I
1J
0S
0$
#22000
1:
00
0&
0-
1"
14
09
0C
0F
0O
06
1=
0@
1G
0J
1S
1$
#22500
18
1>
07
1;
1C
1O
16
0=
1@
0G
1J
0S
0$
#23000
0N
12
1+
1)
1,
1<
0#
0;
05
0C
0O
06
1?
0@
1G
0J
1S
1$
#23500
0R
1K
0L
1;
1C
1M
16
0?
1@
0G
1J
0S
0$
#24000
0:
10
1'
0.
1!
13
0;
0C
0M
0P
06
1?
0@
1G
0J
1Q
1$
#24500
0>
17
08
19
1C
1M
16
0?
1@
0G
1J
0Q
0$
#25000
1D
01
0+
0)
1*
0,
1#
15
09
0<
0C
0M
06
1=
0@
1G
0J
1Q
1$
#25500
1B
1H
0A
19
1E
1M
16
0=
1@
0G
1J
0Q
0$
#26000
1:
00
0'
1-
1F
0"
09
0E
04
0M
06
1=
0@
1I
0J
1Q
1$
#26500
18
1>
07
1;
1E
1M
16
0=
1@
0I
1J
0Q
0$
#27000
0:
1N
10
02
1(
0*
1,
1<
0#
0;
05
0E
0M
06
1?
0@
1I
0J
1Q
1$
#27500
0>
17
1L
1R
08
0K
19
1E
1O
16
0?
1@
0I
1J
0Q
0$
#28000
0(
0D
0,
11
1&
1#
1.
15
1P
0!
09
0<
0E
0O
03
06
1=
0@
1I
0J
1S
1$
#28500
0H
1A
0B
19
1C
1O
16
0=
1@
0I
1J
0S
0$
#29000
1:
00
0&
0-
1"
14
09
0C
0F
0O
06
1=
0@
1G
0J
1S
1$
#29500
18
1>
07
1;
1C
1O
16
0=
1@
0G
1J
0S
0$
#30000
0N
12
1+
1)
1,
1<
0#
0;
05
0C
0O
06
1?
0@
1G
0J
1S
1$
#30500
0R
1K
0L
1;
1C
1M
16
0?
1@
0G
1J
0S
0$
#31000
0:
10
1'
0.
1!
13
0;
0C
0M
0P
06
1?
0@
1G
0J
1Q
1$
