m_divder/divider.vcd
$date
	Tue Dec  1 12:15:56 2020
$end
$version
	Icarus Verilog
$end
$timescale
	10ps
$end
$scope module t_divider $end
$var wire 5 ! opt [4:0] $end
$var wire 5 " low [4:0] $end
$var reg 5 # a [4:0] $end
$var reg 5 $ b [4:0] $end
$var reg 1 % clk $end
$var reg 1 & reset $end
$scope module test $end
$var wire 1 % clk $end
$var wire 5 ' ia [4:0] $end
$var wire 5 ( ib [4:0] $end
$var wire 1 & rst $end
$var wire 5 ) tmpa [4:0] $end
$var wire 5 * tmp2 [4:0] $end
$var wire 5 + tmp [4:0] $end
$var wire 5 , rst_tmp [4:0] $end
$var wire 5 - out_a [4:0] $end
$var wire 5 . opt [4:0] $end
$var wire 5 / amb [4:0] $end
$var wire 5 0 a [4:0] $end
$scope module d[0] $end
$var wire 1 1 D $end
$var wire 1 % clk $end
$var wire 1 2 not_clk $end
$var wire 1 3 tmp $end
$var wire 1 4 Q $end
$scope module first_latch $end
$var wire 1 1 D $end
$var wire 1 % En $end
$var wire 1 3 Q $end
$var wire 1 5 Q_bar $end
$var wire 1 6 down_wire $end
$var wire 1 7 not_D $end
$var wire 1 8 up_wire $end
$upscope $end
$scope module second_latch $end
$var wire 1 3 D $end
$var wire 1 2 En $end
$var wire 1 4 Q $end
$var wire 1 9 Q_bar $end
$var wire 1 : down_wire $end
$var wire 1 ; not_D $end
$var wire 1 < up_wire $end
$upscope $end
$upscope $end
$scope module d[1] $end
$var wire 1 = D $end
$var wire 1 % clk $end
$var wire 1 > not_clk $end
$var wire 1 ? tmp $end
$var wire 1 @ Q $end
$scope module first_latch $end
$var wire 1 = D $end
$var wire 1 % En $end
$var wire 1 ? Q $end
$var wire 1 A Q_bar $end
$var wire 1 B down_wire $end
$var wire 1 C not_D $end
$var wire 1 D up_wire $end
$upscope $end
$scope module second_latch $end
$var wire 1 ? D $end
$var wire 1 > En $end
$var wire 1 @ Q $end
$var wire 1 E Q_bar $end
$var wire 1 F down_wire $end
$var wire 1 G not_D $end
$var wire 1 H up_wire $end
$upscope $end
$upscope $end
$scope module d[2] $end
$var wire 1 I D $end
$var wire 1 % clk $end
$var wire 1 J not_clk $end
$var wire 1 K tmp $end
$var wire 1 L Q $end
$scope module first_latch $end
$var wire 1 I D $end
$var wire 1 % En $end
$var wire 1 K Q $end
$var wire 1 M Q_bar $end
$var wire 1 N down_wire $end
$var wire 1 O not_D $end
$var wire 1 P up_wire $end
$upscope $end
$scope module second_latch $end
$var wire 1 K D $end
$var wire 1 J En $end
$var wire 1 L Q $end
$var wire 1 Q Q_bar $end
$var wire 1 R down_wire $end
$var wire 1 S not_D $end
$var wire 1 T up_wire $end
$upscope $end
$upscope $end
$scope module d[3] $end
$var wire 1 U D $end
$var wire 1 % clk $end
$var wire 1 V not_clk $end
$var wire 1 W tmp $end
$var wire 1 X Q $end
$scope module first_latch $end
$var wire 1 U D $end
$var wire 1 % En $end
$var wire 1 W Q $end
$var wire 1 Y Q_bar $end
$var wire 1 Z down_wire $end
$var wire 1 [ not_D $end
$var wire 1 \ up_wire $end
$upscope $end
$scope module second_latch $end
$var wire 1 W D $end
$var wire 1 V En $end
$var wire 1 X Q $end
$var wire 1 ] Q_bar $end
$var wire 1 ^ down_wire $end
$var wire 1 _ not_D $end
$var wire 1 ` up_wire $end
$upscope $end
$upscope $end
$scope module d[4] $end
$var wire 1 a D $end
$var wire 1 % clk $end
$var wire 1 b not_clk $end
$var wire 1 c tmp $end
$var wire 1 d Q $end
$scope module first_latch $end
$var wire 1 a D $end
$var wire 1 % En $end
$var wire 1 c Q $end
$var wire 1 e Q_bar $end
$var wire 1 f down_wire $end
$var wire 1 g not_D $end
$var wire 1 h up_wire $end
$upscope $end
$scope module second_latch $end
$var wire 1 c D $end
$var wire 1 b En $end
$var wire 1 d Q $end
$var wire 1 i Q_bar $end
$var wire 1 j down_wire $end
$var wire 1 k not_D $end
$var wire 1 l up_wire $end
$upscope $end
$upscope $end
$scope module da[0] $end
$var wire 1 m D $end
$var wire 1 % clk $end
$var wire 1 n not_clk $end
$var wire 1 o tmp $end
$var wire 1 p Q $end
$scope module first_latch $end
$var wire 1 m D $end
$var wire 1 % En $end
$var wire 1 o Q $end
$var wire 1 q Q_bar $end
$var wire 1 r down_wire $end
$var wire 1 s not_D $end
$var wire 1 t up_wire $end
$upscope $end
$scope module second_latch $end
$var wire 1 o D $end
$var wire 1 n En $end
$var wire 1 p Q $end
$var wire 1 u Q_bar $end
$var wire 1 v down_wire $end
$var wire 1 w not_D $end
$var wire 1 x up_wire $end
$upscope $end
$upscope $end
$scope module da[1] $end
$var wire 1 y D $end
$var wire 1 % clk $end
$var wire 1 z not_clk $end
$var wire 1 { tmp $end
$var wire 1 | Q $end
$scope module first_latch $end
$var wire 1 y D $end
$var wire 1 % En $end
$var wire 1 { Q $end
$var wire 1 } Q_bar $end
$var wire 1 ~ down_wire $end
$var wire 1 !" not_D $end
$var wire 1 "" up_wire $end
$upscope $end
$scope module second_latch $end
$var wire 1 { D $end
$var wire 1 z En $end
$var wire 1 | Q $end
$var wire 1 #" Q_bar $end
$var wire 1 $" down_wire $end
$var wire 1 %" not_D $end
$var wire 1 &" up_wire $end
$upscope $end
$upscope $end
$scope module da[2] $end
$var wire 1 '" D $end
$var wire 1 % clk $end
$var wire 1 (" not_clk $end
$var wire 1 )" tmp $end
$var wire 1 *" Q $end
$scope module first_latch $end
$var wire 1 '" D $end
$var wire 1 % En $end
$var wire 1 )" Q $end
$var wire 1 +" Q_bar $end
$var wire 1 ," down_wire $end
$var wire 1 -" not_D $end
$var wire 1 ." up_wire $end
$upscope $end
$scope module second_latch $end
$var wire 1 )" D $end
$var wire 1 (" En $end
$var wire 1 *" Q $end
$var wire 1 /" Q_bar $end
$var wire 1 0" down_wire $end
$var wire 1 1" not_D $end
$var wire 1 2" up_wire $end
$upscope $end
$upscope $end
$scope module da[3] $end
$var wire 1 3" D $end
$var wire 1 % clk $end
$var wire 1 4" not_clk $end
$var wire 1 5" tmp $end
$var wire 1 6" Q $end
$scope module first_latch $end
$var wire 1 3" D $end
$var wire 1 % En $end
$var wire 1 5" Q $end
$var wire 1 7" Q_bar $end
$var wire 1 8" down_wire $end
$var wire 1 9" not_D $end
$var wire 1 :" up_wire $end
$upscope $end
$scope module second_latch $end
$var wire 1 5" D $end
$var wire 1 4" En $end
$var wire 1 6" Q $end
$var wire 1 ;" Q_bar $end
$var wire 1 <" down_wire $end
$var wire 1 =" not_D $end
$var wire 1 >" up_wire $end
$upscope $end
$upscope $end
$scope module da[4] $end
$var wire 1 ?" D $end
$var wire 1 % clk $end
$var wire 1 @" not_clk $end
$var wire 1 A" tmp $end
$var wire 1 B" Q $end
$scope module first_latch $end
$var wire 1 ?" D $end
$var wire 1 % En $end
$var wire 1 A" Q $end
$var wire 1 C" Q_bar $end
$var wire 1 D" down_wire $end
$var wire 1 E" not_D $end
$var wire 1 F" up_wire $end
$upscope $end
$scope module second_latch $end
$var wire 1 A" D $end
$var wire 1 @" En $end
$var wire 1 B" Q $end
$var wire 1 G" Q_bar $end
$var wire 1 H" down_wire $end
$var wire 1 I" not_D $end
$var wire 1 J" up_wire $end
$upscope $end
$upscope $end
$scope module enu $end
$var wire 5 K" A [4:0] $end
$var wire 5 L" B [4:0] $end
$var wire 1 M" Cin $end
$var wire 5 N" sum [4:0] $end
$scope module a1 $end
$var wire 1 O" A $end
$var wire 1 P" B $end
$var wire 1 M" Cin $end
$var wire 1 Q" Cout $end
$var wire 1 R" sum $end
$upscope $end
$scope module a2 $end
$var wire 1 S" A $end
$var wire 1 T" B $end
$var wire 1 Q" Cin $end
$var wire 1 U" Cout $end
$var wire 1 V" sum $end
$upscope $end
$scope module a3 $end
$var wire 1 W" A $end
$var wire 1 X" B $end
$var wire 1 U" Cin $end
$var wire 1 Y" Cout $end
$var wire 1 Z" sum $end
$upscope $end
$scope module a4 $end
$var wire 1 [" A $end
$var wire 1 \" B $end
$var wire 1 Y" Cin $end
$var wire 1 ]" Cout $end
$var wire 1 ^" sum $end
$upscope $end
$scope module a5 $end
$var wire 1 _" A $end
$var wire 1 `" B $end
$var wire 1 ]" Cin $end
$var wire 1 a" Cout $end
$var wire 1 b" sum $end
$upscope $end
$upscope $end
$scope module m[0] $end
$var wire 1 c" A $end
$var wire 1 d" B $end
$var wire 1 e" Q $end
$var wire 1 f" not_select $end
$var wire 1 & select $end
$var wire 1 g" tmp1 $end
$var wire 1 h" tmp2 $end
$upscope $end
$scope module m[1] $end
$var wire 1 i" A $end
$var wire 1 j" B $end
$var wire 1 k" Q $end
$var wire 1 l" not_select $end
$var wire 1 & select $end
$var wire 1 m" tmp1 $end
$var wire 1 n" tmp2 $end
$upscope $end
$scope module m[2] $end
$var wire 1 o" A $end
$var wire 1 p" B $end
$var wire 1 q" Q $end
$var wire 1 r" not_select $end
$var wire 1 & select $end
$var wire 1 s" tmp1 $end
$var wire 1 t" tmp2 $end
$upscope $end
$scope module m[3] $end
$var wire 1 u" A $end
$var wire 1 v" B $end
$var wire 1 w" Q $end
$var wire 1 x" not_select $end
$var wire 1 & select $end
$var wire 1 y" tmp1 $end
$var wire 1 z" tmp2 $end
$upscope $end
$scope module m[4] $end
$var wire 1 {" A $end
$var wire 1 |" B $end
$var wire 1 }" Q $end
$var wire 1 ~" not_select $end
$var wire 1 & select $end
$var wire 1 !# tmp1 $end
$var wire 1 "# tmp2 $end
$upscope $end
$scope module m_a[0] $end
$var wire 1 ## A $end
$var wire 1 $# B $end
$var wire 1 %# Q $end
$var wire 1 &# not_select $end
$var wire 1 & select $end
$var wire 1 '# tmp1 $end
$var wire 1 (# tmp2 $end
$upscope $end
$scope module m_a[1] $end
$var wire 1 )# A $end
$var wire 1 *# B $end
$var wire 1 +# Q $end
$var wire 1 ,# not_select $end
$var wire 1 & select $end
$var wire 1 -# tmp1 $end
$var wire 1 .# tmp2 $end
$upscope $end
$scope module m_a[2] $end
$var wire 1 /# A $end
$var wire 1 0# B $end
$var wire 1 1# Q $end
$var wire 1 2# not_select $end
$var wire 1 & select $end
$var wire 1 3# tmp1 $end
$var wire 1 4# tmp2 $end
$upscope $end
$scope module m_a[3] $end
$var wire 1 5# A $end
$var wire 1 6# B $end
$var wire 1 7# Q $end
$var wire 1 8# not_select $end
$var wire 1 & select $end
$var wire 1 9# tmp1 $end
$var wire 1 :# tmp2 $end
$upscope $end
$scope module m_a[4] $end
$var wire 1 ;# A $end
$var wire 1 <# B $end
$var wire 1 =# Q $end
$var wire 1 ># not_select $end
$var wire 1 & select $end
$var wire 1 ?# tmp1 $end
$var wire 1 @# tmp2 $end
$upscope $end
$scope module m_tmpa[0] $end
$var wire 1 A# A $end
$var wire 1 B# B $end
$var wire 1 C# Q $end
$var wire 1 D# not_select $end
$var wire 1 E# select $end
$var wire 1 F# tmp1 $end
$var wire 1 G# tmp2 $end
$upscope $end
$scope module m_tmpa[1] $end
$var wire 1 H# A $end
$var wire 1 I# B $end
$var wire 1 J# Q $end
$var wire 1 K# not_select $end
$var wire 1 E# select $end
$var wire 1 L# tmp1 $end
$var wire 1 M# tmp2 $end
$upscope $end
$scope module m_tmpa[2] $end
$var wire 1 N# A $end
$var wire 1 O# B $end
$var wire 1 P# Q $end
$var wire 1 Q# not_select $end
$var wire 1 E# select $end
$var wire 1 R# tmp1 $end
$var wire 1 S# tmp2 $end
$upscope $end
$scope module m_tmpa[3] $end
$var wire 1 T# A $end
$var wire 1 U# B $end
$var wire 1 V# Q $end
$var wire 1 W# not_select $end
$var wire 1 E# select $end
$var wire 1 X# tmp1 $end
$var wire 1 Y# tmp2 $end
$upscope $end
$scope module m_tmpa[4] $end
$var wire 1 Z# A $end
$var wire 1 [# B $end
$var wire 1 \# Q $end
$var wire 1 ]# not_select $end
$var wire 1 E# select $end
$var wire 1 ^# tmp1 $end
$var wire 1 _# tmp2 $end
$upscope $end
$scope module st[0] $end
$var wire 1 `# A $end
$var wire 1 a# B $end
$var wire 1 b# Q $end
$var wire 1 c# not_select $end
$var wire 1 d# select $end
$var wire 1 e# tmp1 $end
$var wire 1 f# tmp2 $end
$upscope $end
$scope module st[1] $end
$var wire 1 g# A $end
$var wire 1 h# B $end
$var wire 1 i# Q $end
$var wire 1 j# not_select $end
$var wire 1 d# select $end
$var wire 1 k# tmp1 $end
$var wire 1 l# tmp2 $end
$upscope $end
$scope module st[2] $end
$var wire 1 m# A $end
$var wire 1 n# B $end
$var wire 1 o# Q $end
$var wire 1 p# not_select $end
$var wire 1 d# select $end
$var wire 1 q# tmp1 $end
$var wire 1 r# tmp2 $end
$upscope $end
$scope module st[3] $end
$var wire 1 s# A $end
$var wire 1 t# B $end
$var wire 1 u# Q $end
$var wire 1 v# not_select $end
$var wire 1 d# select $end
$var wire 1 w# tmp1 $end
$var wire 1 x# tmp2 $end
$upscope $end
$scope module st[4] $end
$var wire 1 y# A $end
$var wire 1 z# B $end
$var wire 1 {# Q $end
$var wire 1 |# not_select $end
$var wire 1 d# select $end
$var wire 1 }# tmp1 $end
$var wire 1 ~# tmp2 $end
$upscope $end
$upscope $end
$upscope $end
$enddefinitions $end
#0
$dumpvars
x~#
x}#
x|#
x{#
xz#
xy#
xx#
xw#
xv#
xu#
xt#
xs#
xr#
xq#
xp#
xo#
xn#
xm#
xl#
xk#
xj#
xi#
xh#
xg#
xf#
xe#
xd#
xc#
xb#
xa#
x`#
x_#
x^#
x]#
x\#
x[#
xZ#
xY#
xX#
xW#
xV#
xU#
xT#
xS#
xR#
xQ#
xP#
xO#
xN#
xM#
xL#
xK#
xJ#
xI#
xH#
xG#
xF#
xE#
xD#
xC#
xB#
xA#
0@#
0?#
0>#
0=#
0<#
x;#
0:#
09#
08#
07#
06#
x5#
14#
03#
02#
11#
10#
x/#
1.#
0-#
0,#
1+#
1*#
x)#
1(#
0'#
0&#
1%#
1$#
x##
0"#
0!#
0~"
0}"
0|"
x{"
0z"
0y"
0x"
0w"
0v"
xu"
0t"
0s"
0r"
0q"
0p"
xo"
0n"
0m"
0l"
0k"
0j"
xi"
0h"
0g"
0f"
0e"
0d"
xc"
xb"
xa"
0`"
x_"
x^"
x]"
0\"
x["
xZ"
xY"
0X"
xW"
xV"
xU"
0T"
xS"
xR"
xQ"
0P"
xO"
bx N"
1M"
b0 L"
bx K"
0J"
1I"
0H"
xG"
1F"
1E"
0D"
1C"
xB"
0A"
0@"
0?"
0>"
1="
0<"
x;"
1:"
19"
08"
17"
x6"
05"
04"
03"
02"
01"
00"
x/"
0."
0-"
1,"
0+"
x*"
1)"
0("
1'"
0&"
0%"
0$"
x#"
0""
0!"
1~
0}
x|
1{
0z
1y
0x
0w
0v
xu
0t
0s
1r
0q
xp
1o
0n
1m
0l
1k
0j
xi
1h
1g
0f
1e
xd
0c
0b
0a
0`
1_
0^
x]
1\
1[
0Z
1Y
xX
0W
0V
0U
0T
1S
0R
xQ
1P
1O
0N
1M
xL
0K
0J
0I
0H
1G
0F
xE
1D
1C
0B
1A
x@
0?
0>
0=
0<
1;
0:
x9
18
17
06
15
x4
03
02
01
bx 0
bx /
bx .
bx -
bx ,
b0 +
bx *
b111 )
b11 (
b111 '
1&
1%
b11 $
b111 #
bx "
bx !
$end
#1000
0i"
0o"
0u"
0{"
0i#
0o#
0u#
0{#
1c"
0l#
0r#
0x#
0~#
b1 *
1b#
0h#
0n#
0t#
0z#
1f#
0V"
0Z"
0^"
0b"
1a#
0Q"
0U"
0Y"
0]"
0a"
0##
0)#
1/#
05#
0;#
b1 ,
b1 N"
1R"
0C#
0J#
1P#
0F#
0L#
0R#
0V#
b100 -
0\#
0e#
0k#
0q#
0w#
0}#
0c#
0j#
0p#
0v#
0|#
0D#
0G#
0K#
0M#
0Q#
1S#
0W#
0Y#
0]#
0_#
1A#
0B#
0I#
1O#
0U#
0[#
1H#
1N#
0X#
0^#
07
1C
1O
1[
1g
19"
1E"
19
0O"
0`#
1E
0S"
0g#
1Q
0W"
0m#
1]
0["
0s#
1i
0_"
0y#
1d#
1E#
b100 /
1p
1|
1*"
1;"
0T#
1G"
0Z#
11
0=
0I
0U
0a
1s
1!"
0-"
03"
0?"
04
0@
0L
0X
b0 !
b0 .
b0 K"
0d
0u
0#"
0/"
06"
b111 "
b111 0
0B"
1e"
0k"
0q"
0w"
b1 +
0}"
0m
0y
1'"
07#
0=#
1<
1H
1T
1`
1l
1v
1$"
10"
1>"
1J"
1g"
0m"
0s"
0y"
0!#
0'#
0%#
0-#
0+#
13#
b100 )
11#
09#
0?#
12
08
1>
0D
1J
0P
1V
0\
1b
0h
1n
0r
1z
0~
1("
0,"
14"
0:"
1@"
0F"
1f"
1l"
1r"
1x"
1~"
1&#
0(#
1,#
0.#
12#
04#
18#
1>#
0%
0&
#2000
0;
13
1q
1w
1}
1%"
0<
05
0H
0T
0`
0l
0v
0o
0$"
0{
00"
0>"
0J"
02
16
0>
1D
0J
1P
0V
1\
0b
1h
0n
1t
0z
1""
0("
1,"
04"
1:"
0@"
1F"
1%
#3000
0C
1=
17
1k"
01
1m"
b10 +
0e"
1i"
0g"
1i#
0c"
1l#
0s
1-"
b10 *
0b#
1h#
1m
0'"
0f#
1V"
1%#
b1 )
01#
0a#
1Q"
1'#
03#
b10 ,
b10 N"
0R"
1##
0/#
1C#
b1 -
0P#
1O"
1`#
1G#
0S#
b1 !
b1 .
b1 K"
14
1u
0A#
1B#
1#"
0H#
0O#
09
0p
b1 /
b100 "
b100 0
0|
1:
1H
1T
1`
1l
1x
1&"
10"
1>"
1J"
12
06
1>
0D
1J
0P
1V
0\
1b
0h
1n
0t
1z
0""
1("
0,"
14"
0:"
1@"
0F"
0%
#4000
0G
0w
15
1;
1?
1o
1+"
11"
0:
03
0H
0A
0T
0`
0l
0x
0q
0&"
00"
0)"
0>"
0J"
02
18
0>
1B
0J
1P
0V
1\
0b
1h
0n
1r
0z
1""
0("
1."
04"
1:"
0@"
1F"
1%
#5000
0n#
0C
0s
0Z"
1=
1m
1h#
0U"
b10 +
1k"
b1 )
1%#
1a#
0Q"
1V"
1m"
1'#
b11 ,
b11 N"
1R"
1k#
1F#
1i"
1##
1S"
1g#
1A#
0B#
1I#
b10 *
1i#
b1 -
1C#
19
0O"
0`#
1@
1p
1/"
1c#
1j#
0l#
1p#
1v#
1|#
1D#
0G#
1K#
1Q#
1W#
1]#
0N#
1O#
1U#
1[#
b10 !
b10 .
b10 K"
04
0E
0u
0d#
0E#
b11110 /
b1 "
b1 0
0*"
1<
1F
1T
1`
1l
1v
1&"
12"
1>"
1J"
12
08
1>
0B
1J
0P
1V
0\
1b
0h
1n
0r
1z
0""
1("
0."
14"
0:"
1@"
0F"
0%
#6000
0<
0F
0T
0`
0l
0v
0&"
02"
0>"
0J"
02
18
0>
1B
0J
1P
0V
1\
0b
1h
0n
1r
0z
1""
0("
1."
04"
1:"
0@"
1F"
1%
#7000
1<
1F
1T
1`
1l
1v
1&"
12"
1>"
1J"
12
08
1>
0B
1J
0P
1V
0\
1b
0h
1n
0r
1z
0""
1("
0."
14"
0:"
1@"
0F"
0%
#8000
0<
0F
0T
0`
0l
0v
0&"
02"
0>"
0J"
02
18
0>
1B
0J
1P
0V
1\
0b
1h
0n
1r
0z
1""
0("
1."
04"
1:"
0@"
1F"
1%
#9000
1<
1F
1T
1`
1l
1v
1&"
12"
1>"
1J"
12
08
1>
0B
1J
0P
1V
0\
1b
0h
1n
0r
1z
0""
1("
0."
14"
0:"
1@"
0F"
0%
#10000
0<
0F
0T
0`
0l
0v
0&"
02"
0>"
0J"
02
18
0>
1B
0J
1P
0V
1\
0b
1h
0n
1r
0z
1""
0("
1."
04"
1:"
0@"
1F"
1%
#11000
1<
1F
1T
1`
1l
1v
1&"
12"
1>"
1J"
12
08
1>
0B
1J
0P
1V
0\
1b
0h
1n
0r
1z
0""
1("
0."
14"
0:"
1@"
0F"
0%
#12000
0<
0F
0T
0`
0l
0v
0&"
02"
0>"
0J"
02
18
0>
1B
0J
1P
0V
1\
0b
1h
0n
1r
0z
1""
0("
1."
04"
1:"
0@"
1F"
1%
#13000
1<
1F
1T
1`
1l
1v
1&"
12"
1>"
1J"
12
08
1>
0B
1J
0P
1V
0\
1b
0h
1n
0r
1z
0""
1("
0."
14"
0:"
1@"
0F"
0%
#14000
0<
0F
0T
0`
0l
0v
0&"
02"
0>"
0J"
02
18
0>
1B
0J
1P
0V
1\
0b
1h
0n
1r
0z
1""
0("
1."
04"
1:"
0@"
1F"
1%
#15000
1<
1F
1T
1`
1l
1v
1&"
12"
1>"
1J"
12
08
1>
0B
1J
0P
1V
0\
1b
0h
1n
0r
1z
0""
1("
0."
14"
0:"
1@"
0F"
0%
#16000
0<
0F
0T
0`
0l
0v
0&"
02"
0>"
0J"
02
18
0>
1B
0J
1P
0V
1\
0b
1h
0n
1r
0z
1""
0("
1."
04"
1:"
0@"
1F"
1%
#17000
1<
1F
1T
1`
1l
1v
1&"
12"
1>"
1J"
12
08
1>
0B
1J
0P
1V
0\
1b
0h
1n
0r
1z
0""
1("
0."
14"
0:"
1@"
0F"
0%
#18000
0<
0F
0T
0`
0l
0v
0&"
02"
0>"
0J"
02
18
0>
1B
0J
1P
0V
1\
0b
1h
0n
1r
0z
1""
0("
1."
04"
1:"
0@"
1F"
1%
#19000
1<
1F
1T
1`
1l
1v
1&"
12"
1>"
1J"
12
08
1>
0B
1J
0P
1V
0\
1b
0h
1n
0r
1z
0""
1("
0."
14"
0:"
1@"
0F"
0%
#20000
0<
0F
0T
0`
0l
0v
0&"
02"
0>"
0J"
02
18
0>
1B
0J
1P
0V
1\
0b
1h
0n
1r
0z
1""
0("
1."
04"
1:"
0@"
1F"
1%
#21000
1<
1F
1T
1`
1l
1v
1&"
12"
1>"
1J"
12
08
1>
0B
1J
0P
1V
0\
1b
0h
1n
0r
1z
0""
1("
0."
14"
0:"
1@"
0F"
0%
#22000
0<
0F
0T
0`
0l
0v
0&"
02"
0>"
0J"
02
18
0>
1B
0J
1P
0V
1\
0b
1h
0n
1r
0z
1""
0("
1."
04"
1:"
0@"
1F"
1%
#23000
1<
1F
1T
1`
1l
1v
1&"
12"
1>"
1J"
12
08
1>
0B
1J
0P
1V
0\
1b
0h
1n
0r
1z
0""
1("
0."
14"
0:"
1@"
0F"
0%
#24000
0<
0F
0T
0`
0l
0v
0&"
02"
0>"
0J"
02
18
0>
1B
0J
1P
0V
1\
0b
1h
0n
1r
0z
1""
0("
1."
04"
1:"
0@"
1F"
1%
#25000
1<
1F
1T
1`
1l
1v
1&"
12"
1>"
1J"
12
08
1>
0B
1J
0P
1V
0\
1b
0h
1n
0r
1z
0""
1("
0."
14"
0:"
1@"
0F"
0%
#26000
0<
0F
0T
0`
0l
0v
0&"
02"
0>"
0J"
02
18
0>
1B
0J
1P
0V
1\
0b
1h
0n
1r
0z
1""
0("
1."
04"
1:"
0@"
1F"
1%
#27000
1<
1F
1T
1`
1l
1v
1&"
12"
1>"
1J"
12
08
1>
0B
1J
0P
1V
0\
1b
0h
1n
0r
1z
0""
1("
0."
14"
0:"
1@"
0F"
0%
#28000
0<
0F
0T
0`
0l
0v
0&"
02"
0>"
0J"
02
18
0>
1B
0J
1P
0V
1\
0b
1h
0n
1r
0z
1""
0("
1."
04"
1:"
0@"
1F"
1%
#29000
1<
1F
1T
1`
1l
1v
1&"
12"
1>"
1J"
12
08
1>
0B
1J
0P
1V
0\
1b
0h
1n
0r
1z
0""
1("
0."
14"
0:"
1@"
0F"
0%
#30000
0<
0F
0T
0`
0l
0v
0&"
02"
0>"
0J"
02
18
0>
1B
0J
1P
0V
1\
0b
1h
0n
1r
0z
1""
0("
1."
04"
1:"
0@"
1F"
1%
#31000
1<
1F
1T
1`
1l
1v
1&"
12"
1>"
1J"
12
08
1>
0B
1J
0P
1V
0\
1b
0h
1n
0r
1z
0""
1("
0."
14"
0:"
1@"
0F"
0%
#32000
0<
0F
0T
0`
0l
0v
0&"
02"
0>"
0J"
02
18
0>
1B
0J
1P
0V
1\
0b
1h
0n
1r
0z
1""
0("
1."
04"
1:"
0@"
1F"
1%
#33000
1<
1F
1T
1`
1l
1v
1&"
12"
1>"
1J"
12
08
1>
0B
1J
0P
1V
0\
1b
0h
1n
0r
1z
0""
1("
0."
14"
0:"
1@"
0F"
0%
#34000
0<
0F
0T
0`
0l
0v
0&"
02"
0>"
0J"
02
18
0>
1B
0J
1P
0V
1\
0b
1h
0n
1r
0z
1""
0("
1."
04"
1:"
0@"
1F"
1%
#35000
1<
1F
1T
1`
1l
1v
1&"
12"
1>"
1J"
12
08
1>
0B
1J
0P
1V
0\
1b
0h
1n
0r
1z
0""
1("
0."
14"
0:"
1@"
0F"
0%
#36000
0<
0F
0T
0`
0l
0v
0&"
02"
0>"
0J"
02
18
0>
1B
0J
1P
0V
1\
0b
1h
0n
1r
0z
1""
0("
1."
04"
1:"
0@"
1F"
1%
#37000
1<
1F
1T
1`
1l
1v
1&"
12"
1>"
1J"
12
08
1>
0B
1J
0P
1V
0\
1b
0h
1n
0r
1z
0""
1("
0."
14"
0:"
1@"
0F"
0%
#38000
0<
0F
0T
0`
0l
0v
0&"
02"
0>"
0J"
02
18
0>
1B
0J
1P
0V
1\
0b
1h
0n
1r
0z
1""
0("
1."
04"
1:"
0@"
1F"
1%
#39000
1<
1F
1T
1`
1l
1v
1&"
12"
1>"
1J"
12
08
1>
0B
1J
0P
1V
0\
1b
0h
1n
0r
1z
0""
1("
0."
14"
0:"
1@"
0F"
0%
#40000
0<
0F
0T
0`
0l
0v
0&"
02"
0>"
0J"
02
18
0>
1B
0J
1P
0V
1\
0b
1h
0n
1r
0z
1""
0("
1."
04"
1:"
0@"
1F"
1%
#41000
1<
1F
1T
1`
1l
1v
1&"
12"
1>"
1J"
12
08
1>
0B
1J
0P
1V
0\
1b
0h
1n
0r
1z
0""
1("
0."
14"
0:"
1@"
0F"
0%
#42000
0<
0F
0T
0`
0l
0v
0&"
02"
0>"
0J"
02
18
0>
1B
0J
1P
0V
1\
0b
1h
0n
1r
0z
1""
0("
1."
04"
1:"
0@"
1F"
1%
#43000
1<
1F
1T
1`
1l
1v
1&"
12"
1>"
1J"
12
08
1>
0B
1J
0P
1V
0\
1b
0h
1n
0r
1z
0""
1("
0."
14"
0:"
1@"
0F"
0%
#44000
0<
0F
0T
0`
0l
0v
0&"
02"
0>"
0J"
02
18
0>
1B
0J
1P
0V
1\
0b
1h
0n
1r
0z
1""
0("
1."
04"
1:"
0@"
1F"
1%
#45000
1<
1F
1T
1`
1l
1v
1&"
12"
1>"
1J"
12
08
1>
0B
1J
0P
1V
0\
1b
0h
1n
0r
1z
0""
1("
0."
14"
0:"
1@"
0F"
0%
#46000
0<
0F
0T
0`
0l
0v
0&"
02"
0>"
0J"
02
18
0>
1B
0J
1P
0V
1\
0b
1h
0n
1r
0z
1""
0("
1."
04"
1:"
0@"
1F"
1%
#47000
1<
1F
1T
1`
1l
1v
1&"
12"
1>"
1J"
12
08
1>
0B
1J
0P
1V
0\
1b
0h
1n
0r
1z
0""
1("
0."
14"
0:"
1@"
0F"
0%
#48000
0<
0F
0T
0`
0l
0v
0&"
02"
0>"
0J"
02
18
0>
1B
0J
1P
0V
1\
0b
1h
0n
1r
0z
1""
0("
1."
04"
1:"
0@"
1F"
1%
#49000
1<
1F
1T
1`
1l
1v
1&"
12"
1>"
1J"
12
08
1>
0B
1J
0P
1V
0\
1b
0h
1n
0r
1z
0""
1("
0."
14"
0:"
1@"
0F"
0%
#50000
0<
0F
0T
0`
0l
0v
0&"
02"
0>"
0J"
02
18
0>
1B
0J
1P
0V
1\
0b
1h
0n
1r
0z
1""
0("
1."
04"
1:"
0@"
1F"
1%
#51000
1<
1F
1T
1`
1l
1v
1&"
12"
1>"
1J"
12
08
1>
0B
1J
0P
1V
0\
1b
0h
1n
0r
1z
0""
1("
0."
14"
0:"
1@"
0F"
0%
#52000
0<
0F
0T
0`
0l
0v
0&"
02"
0>"
0J"
02
18
0>
1B
0J
1P
0V
1\
0b
1h
0n
1r
0z
1""
0("
1."
04"
1:"
0@"
1F"
1%
#53000
1<
1F
1T
1`
1l
1v
1&"
12"
1>"
1J"
12
08
1>
0B
1J
0P
1V
0\
1b
0h
1n
0r
1z
0""
1("
0."
14"
0:"
1@"
0F"
0%
#54000
0<
0F
0T
0`
0l
0v
0&"
02"
0>"
0J"
02
18
0>
1B
0J
1P
0V
1\
0b
1h
0n
1r
0z
1""
0("
1."
04"
1:"
0@"
1F"
1%
#55000
1<
1F
1T
1`
1l
1v
1&"
12"
1>"
1J"
12
08
1>
0B
1J
0P
1V
0\
1b
0h
1n
0r
1z
0""
1("
0."
14"
0:"
1@"
0F"
0%
#56000
0<
0F
0T
0`
0l
0v
0&"
02"
0>"
0J"
02
18
0>
1B
0J
1P
0V
1\
0b
1h
0n
1r
0z
1""
0("
1."
04"
1:"
0@"
1F"
1%
#57000
1<
1F
1T
1`
1l
1v
1&"
12"
1>"
1J"
12
08
1>
0B
1J
0P
1V
0\
1b
0h
1n
0r
1z
0""
1("
0."
14"
0:"
1@"
0F"
0%
#58000
0<
0F
0T
0`
0l
0v
0&"
02"
0>"
0J"
02
18
0>
1B
0J
1P
0V
1\
0b
1h
0n
1r
0z
1""
0("
1."
04"
1:"
0@"
1F"
1%
#59000
1<
1F
1T
1`
1l
1v
1&"
12"
1>"
1J"
12
08
1>
0B
1J
0P
1V
0\
1b
0h
1n
0r
1z
0""
1("
0."
14"
0:"
1@"
0F"
0%
#60000
0<
0F
0T
0`
0l
0v
0&"
02"
0>"
0J"
02
18
0>
1B
0J
1P
0V
1\
0b
1h
0n
1r
0z
1""
0("
1."
04"
1:"
0@"
1F"
1%
