HW_6_counter/bcd_counter.vcd
$date
	Fri Nov 20 13:39:15 2020
$end
$version
	Icarus Verilog
$end
$timescale
	10ps
$end
$scope module t_bcd_counter $end
$var wire 5 ! opt [4:0] $end
$var reg 1 " clk $end
$var reg 1 # reset $end
$scope module test $end
$var wire 1 " clk $end
$var wire 1 # rst $end
$var wire 5 $ tmp [4:0] $end
$var wire 5 % rst_tmp [4:0] $end
$var wire 5 & opt [4:0] $end
$scope module d[0] $end
$var wire 1 ' D $end
$var wire 1 " clk $end
$var wire 1 ( not_clk $end
$var wire 1 ) tmp $end
$var wire 1 * Q $end
$scope module first_latch $end
$var wire 1 ' D $end
$var wire 1 " En $end
$var wire 1 ) Q $end
$var wire 1 + Q_bar $end
$var wire 1 , down_wire $end
$var wire 1 - not_D $end
$var wire 1 . up_wire $end
$upscope $end
$scope module second_latch $end
$var wire 1 ) D $end
$var wire 1 ( En $end
$var wire 1 * Q $end
$var wire 1 / Q_bar $end
$var wire 1 0 down_wire $end
$var wire 1 1 not_D $end
$var wire 1 2 up_wire $end
$upscope $end
$upscope $end
$scope module d[1] $end
$var wire 1 3 D $end
$var wire 1 " clk $end
$var wire 1 4 not_clk $end
$var wire 1 5 tmp $end
$var wire 1 6 Q $end
$scope module first_latch $end
$var wire 1 3 D $end
$var wire 1 " En $end
$var wire 1 5 Q $end
$var wire 1 7 Q_bar $end
$var wire 1 8 down_wire $end
$var wire 1 9 not_D $end
$var wire 1 : up_wire $end
$upscope $end
$scope module second_latch $end
$var wire 1 5 D $end
$var wire 1 4 En $end
$var wire 1 6 Q $end
$var wire 1 ; Q_bar $end
$var wire 1 < down_wire $end
$var wire 1 = not_D $end
$var wire 1 > up_wire $end
$upscope $end
$upscope $end
$scope module d[2] $end
$var wire 1 ? D $end
$var wire 1 " clk $end
$var wire 1 @ not_clk $end
$var wire 1 A tmp $end
$var wire 1 B Q $end
$scope module first_latch $end
$var wire 1 ? D $end
$var wire 1 " En $end
$var wire 1 A Q $end
$var wire 1 C Q_bar $end
$var wire 1 D down_wire $end
$var wire 1 E not_D $end
$var wire 1 F up_wire $end
$upscope $end
$scope module second_latch $end
$var wire 1 A D $end
$var wire 1 @ En $end
$var wire 1 B Q $end
$var wire 1 G Q_bar $end
$var wire 1 H down_wire $end
$var wire 1 I not_D $end
$var wire 1 J up_wire $end
$upscope $end
$upscope $end
$scope module d[3] $end
$var wire 1 K D $end
$var wire 1 " clk $end
$var wire 1 L not_clk $end
$var wire 1 M tmp $end
$var wire 1 N Q $end
$scope module first_latch $end
$var wire 1 K D $end
$var wire 1 " En $end
$var wire 1 M Q $end
$var wire 1 O Q_bar $end
$var wire 1 P down_wire $end
$var wire 1 Q not_D $end
$var wire 1 R up_wire $end
$upscope $end
$scope module second_latch $end
$var wire 1 M D $end
$var wire 1 L En $end
$var wire 1 N Q $end
$var wire 1 S Q_bar $end
$var wire 1 T down_wire $end
$var wire 1 U not_D $end
$var wire 1 V up_wire $end
$upscope $end
$upscope $end
$scope module d[4] $end
$var wire 1 W D $end
$var wire 1 " clk $end
$var wire 1 X not_clk $end
$var wire 1 Y tmp $end
$var wire 1 Z Q $end
$scope module first_latch $end
$var wire 1 W D $end
$var wire 1 " En $end
$var wire 1 Y Q $end
$var wire 1 [ Q_bar $end
$var wire 1 \ down_wire $end
$var wire 1 ] not_D $end
$var wire 1 ^ up_wire $end
$upscope $end
$scope module second_latch $end
$var wire 1 Y D $end
$var wire 1 X En $end
$var wire 1 Z Q $end
$var wire 1 _ Q_bar $end
$var wire 1 ` down_wire $end
$var wire 1 a not_D $end
$var wire 1 b up_wire $end
$upscope $end
$upscope $end
$scope module enu $end
$var wire 5 c A [4:0] $end
$var wire 5 d B [4:0] $end
$var wire 1 e and1 $end
$var wire 5 f sum [4:0] $end
$var wire 5 g out [4:0] $end
$scope module ans $end
$var wire 5 h A [4:0] $end
$var wire 1 i Cin $end
$var wire 5 j sum [4:0] $end
$var wire 5 k B [4:0] $end
$scope module a1 $end
$var wire 1 l A $end
$var wire 1 m B $end
$var wire 1 i Cin $end
$var wire 1 n Cout $end
$var wire 1 o sum $end
$upscope $end
$scope module a2 $end
$var wire 1 p A $end
$var wire 1 q B $end
$var wire 1 n Cin $end
$var wire 1 r Cout $end
$var wire 1 s sum $end
$upscope $end
$scope module a3 $end
$var wire 1 t A $end
$var wire 1 u B $end
$var wire 1 r Cin $end
$var wire 1 v Cout $end
$var wire 1 w sum $end
$upscope $end
$scope module a4 $end
$var wire 1 x A $end
$var wire 1 y B $end
$var wire 1 v Cin $end
$var wire 1 z Cout $end
$var wire 1 { sum $end
$upscope $end
$scope module a5 $end
$var wire 1 | A $end
$var wire 1 } B $end
$var wire 1 z Cin $end
$var wire 1 ~ Cout $end
$var wire 1 !" sum $end
$upscope $end
$upscope $end
$scope module get_sum $end
$var wire 5 "" A [4:0] $end
$var wire 5 #" B [4:0] $end
$var wire 1 $" Cin $end
$var wire 5 %" sum [4:0] $end
$scope module a1 $end
$var wire 1 &" A $end
$var wire 1 '" B $end
$var wire 1 $" Cin $end
$var wire 1 (" Cout $end
$var wire 1 )" sum $end
$upscope $end
$scope module a2 $end
$var wire 1 *" A $end
$var wire 1 +" B $end
$var wire 1 (" Cin $end
$var wire 1 ," Cout $end
$var wire 1 -" sum $end
$upscope $end
$scope module a3 $end
$var wire 1 ." A $end
$var wire 1 /" B $end
$var wire 1 ," Cin $end
$var wire 1 0" Cout $end
$var wire 1 1" sum $end
$upscope $end
$scope module a4 $end
$var wire 1 2" A $end
$var wire 1 3" B $end
$var wire 1 0" Cin $end
$var wire 1 4" Cout $end
$var wire 1 5" sum $end
$upscope $end
$scope module a5 $end
$var wire 1 6" A $end
$var wire 1 7" B $end
$var wire 1 4" Cin $end
$var wire 1 8" Cout $end
$var wire 1 9" sum $end
$upscope $end
$upscope $end
$upscope $end
$scope module m[0] $end
$var wire 1 :" A $end
$var wire 1 ;" B $end
$var wire 1 <" Q $end
$var wire 1 =" not_select $end
$var wire 1 # select $end
$var wire 1 >" tmp1 $end
$var wire 1 ?" tmp2 $end
$upscope $end
$scope module m[1] $end
$var wire 1 @" A $end
$var wire 1 A" B $end
$var wire 1 B" Q $end
$var wire 1 C" not_select $end
$var wire 1 # select $end
$var wire 1 D" tmp1 $end
$var wire 1 E" tmp2 $end
$upscope $end
$scope module m[2] $end
$var wire 1 F" A $end
$var wire 1 G" B $end
$var wire 1 H" Q $end
$var wire 1 I" not_select $end
$var wire 1 # select $end
$var wire 1 J" tmp1 $end
$var wire 1 K" tmp2 $end
$upscope $end
$scope module m[3] $end
$var wire 1 L" A $end
$var wire 1 M" B $end
$var wire 1 N" Q $end
$var wire 1 O" not_select $end
$var wire 1 # select $end
$var wire 1 P" tmp1 $end
$var wire 1 Q" tmp2 $end
$upscope $end
$scope module m[4] $end
$var wire 1 R" A $end
$var wire 1 S" B $end
$var wire 1 T" Q $end
$var wire 1 U" not_select $end
$var wire 1 # select $end
$var wire 1 V" tmp1 $end
$var wire 1 W" tmp2 $end
$upscope $end
$upscope $end
$upscope $end
$enddefinitions $end
#0
$dumpvars
0W"
0V"
0U"
0T"
0S"
xR"
0Q"
0P"
0O"
0N"
0M"
xL"
0K"
0J"
0I"
0H"
0G"
xF"
0E"
0D"
0C"
0B"
0A"
x@"
0?"
0>"
0="
0<"
0;"
x:"
x9"
x8"
07"
x6"
x5"
x4"
03"
x2"
x1"
x0"
0/"
x."
x-"
x,"
0+"
x*"
x)"
x("
1'"
x&"
bx %"
0$"
b1 #"
bx ""
x!"
x~
x}
x|
x{
xz
xy
xx
xw
xv
xu
xt
xs
xr
xq
xp
xo
xn
xm
xl
bx k
bx j
0i
bx h
bx g
bx f
xe
b1 d
bx c
0b
1a
0`
x_
1^
1]
0\
1[
xZ
0Y
0X
0W
0V
1U
0T
xS
1R
1Q
0P
1O
xN
0M
0L
0K
0J
1I
0H
xG
1F
1E
0D
1C
xB
0A
0@
0?
0>
1=
0<
x;
1:
19
08
17
x6
05
04
03
02
11
00
x/
1.
1-
0,
1+
x*
0)
0(
0'
bx &
bx %
b0 $
1#
1"
bx !
$end
#1000
0F"
0L"
0R"
0@"
0w
0{
0!"
1:"
0s
0r
0v
0z
0~
b1 %
b1 g
b1 j
1o
0n
0l
0p
0t
0x
0|
b0 h
0e
0u
0y
0}
0q
01"
05"
09"
1m
0-"
0,"
00"
04"
08"
b1 f
b1 k
b1 %"
1)"
0("
0-
19
1E
1Q
1]
1/
0&"
1;
0*"
1G
0."
1S
02"
1_
06"
1'
03
0?
0K
0W
0*
06
0B
0N
b0 !
b0 &
b0 c
b0 ""
0Z
1<"
0B"
0H"
0N"
b1 $
0T"
12
1>
1J
1V
1b
1>"
0D"
0J"
0P"
0V"
1(
0.
14
0:
1@
0F
1L
0R
1X
0^
1="
1C"
1I"
1O"
1U"
0"
0#
#2000
01
1)
02
0+
0>
0J
0V
0b
0(
1,
04
1:
0@
1F
0L
1R
0X
1^
1"
#3000
09
1-
13
0'
1B"
b10 $
0<"
1D"
0>"
1@"
0:"
1s
b10 %
b10 g
b10 j
0o
1q
0m
1-"
b10 f
b10 k
b10 %"
0)"
1("
1&"
b1 !
b1 &
b1 c
b1 ""
1*
0/
10
1>
1J
1V
1b
1(
0,
14
0:
1@
0F
1L
0R
1X
0^
0"
#4000
0=
1+
11
15
00
0)
0>
07
0J
0V
0b
0(
1.
04
18
0@
1F
0L
1R
0X
1^
1"
#5000
0-
1'
b11 $
1<"
1>"
1:"
b11 %
b11 g
b11 j
1o
1m
b11 f
b11 k
b11 %"
1)"
0("
1*"
1/
0&"
16
b10 !
b10 &
b10 c
b10 ""
0*
0;
12
1<
1J
1V
1b
1(
0.
14
08
1@
0F
1L
0R
1X
0^
0"
#6000
01
1)
02
0+
0<
0J
0V
0b
0(
1,
04
18
0@
1F
0L
1R
0X
1^
1"
#7000
0E
1?
19
1H"
1-
03
1J"
0'
0B"
1F"
b100 $
0<"
0D"
1w
0>"
0@"
0:"
0s
1u
b100 %
b100 g
b100 j
0o
11"
0q
1,"
0m
0-"
b100 f
b100 k
b100 %"
0)"
1("
1&"
b11 !
b11 &
b11 c
b11 ""
1*
0/
10
1<
1J
1V
1b
1(
0,
14
08
1@
0F
1L
0R
1X
0^
0"
#8000
0I
1+
11
17
1=
1A
00
0)
0<
05
0J
0C
0V
0b
0(
1.
04
1:
0@
1D
0L
1R
0X
1^
1"
#9000
1Q
0K
0E
0N"
0-
19
1?
0P"
1'
03
1H"
0L"
1<"
b101 $
0B"
1J"
0{
1>"
0D"
1F"
1:"
0@"
1w
0y
1o
b101 %
b101 g
b101 j
0s
05"
1u
00"
1m
0q
0,"
11"
1)"
0("
b101 f
b101 k
b101 %"
0-"
1."
1/
0&"
1;
0*"
1B
0*
b100 !
b100 &
b100 c
b100 ""
06
0G
12
1>
1H
1V
1b
1(
0.
14
0:
1@
0D
1L
0R
1X
0^
0"
#10000
01
1)
02
0+
0>
0H
0V
0b
0(
1,
04
1:
0@
1D
0L
1R
0X
1^
1"
#11000
09
1-
13
0'
1B"
b110 $
0<"
1D"
0>"
1@"
0:"
1s
b110 %
b110 g
b110 j
0o
1q
0m
1-"
b110 f
b110 k
b110 %"
0)"
1("
1&"
b101 !
b101 &
b101 c
b101 ""
1*
0/
10
1>
1H
1V
1b
1(
0,
14
0:
1@
0D
1L
0R
1X
0^
0"
#12000
0=
1+
11
15
00
0)
0>
07
0H
0V
0b
0(
1.
04
18
0@
1D
0L
1R
0X
1^
1"
#13000
0-
1'
b111 $
1<"
1>"
1:"
b111 %
b111 g
b111 j
1o
1m
b111 f
b111 k
b111 %"
1)"
0("
1*"
1/
0&"
16
b110 !
b110 &
b110 c
b110 ""
0*
0;
12
1<
1H
1V
1b
1(
0.
14
08
1@
0D
1L
0R
1X
0^
0"
#14000
01
1)
02
0+
0<
0H
0V
0b
0(
1,
04
18
0@
1D
0L
1R
0X
1^
1"
#15000
0Q
1K
1E
1N"
0?
1P"
19
0H"
1L"
1-
03
0J"
1{
0'
0B"
0F"
b1000 $
0<"
0D"
0w
1y
0>"
0@"
15"
0:"
0s
0u
10"
b1000 %
b1000 g
b1000 j
0o
01"
0q
1,"
0m
0-"
b1000 f
b1000 k
b1000 %"
0)"
1("
1&"
b111 !
b111 &
b111 c
b111 ""
1*
0/
10
1<
1H
1V
1b
1(
0,
14
08
1@
0D
1L
0R
1X
0^
0"
#16000
0U
1+
11
17
1=
1C
1I
1M
00
0)
0<
05
0H
0A
0V
0O
0b
0(
1.
04
1:
0@
1F
0L
1P
0X
1^
1"
#17000
1]
0W
0Q
0T"
0-
19
1E
1K
0V"
1'
03
0?
1N"
0R"
1<"
0B"
b1001 $
0H"
1P"
0!"
1>"
0D"
0J"
1L"
1:"
0@"
0F"
1{
0}
1o
0s
b1001 %
b1001 g
b1001 j
0w
09"
1y
04"
1m
0q
0,"
0u
00"
15"
1)"
0("
0-"
b1001 f
b1001 k
b1001 %"
01"
12"
1/
0&"
1;
0*"
1G
0."
1N
0*
06
b1000 !
b1000 &
b1000 c
b1000 ""
0B
0S
12
1>
1J
1T
1b
1(
0.
14
0:
1@
0F
1L
0P
1X
0^
0"
#18000
01
1)
02
0+
0>
0J
0T
0b
0(
1,
04
1:
0@
1F
0L
1P
0X
1^
1"
#19000
0]
1W
1Q
1T"
0K
1V"
0N"
1R"
0P"
1!"
1E
0L"
1z
0?
0{
0H"
1v
0J"
19
0F"
1-
03
1r
0w
0'
0B"
b10000 $
0<"
0D"
1p
1t
0>"
0@"
b110 h
0:"
0s
b10000 %
b10000 g
b10000 j
0o
1e
1q
0m
1-"
b1010 f
b1010 k
b1010 %"
0)"
1("
1&"
b1001 !
b1001 &
b1001 c
b1001 ""
1*
0/
10
1>
1J
1T
1b
1(
0,
14
0:
1@
0F
1L
0P
1X
0^
0"
#20000
0a
1+
11
1O
1U
1Y
00
0)
0>
0J
0T
0M
0b
0[
0(
1.
04
1:
0@
1F
0L
1R
0X
1\
1"
#21000
1E
19
0?
0]
0-
03
0H"
1Q
1W
1'
0B"
0J"
0K
1T"
1<"
0D"
0F"
0v
b10001 $
0N"
1V"
1>"
0@"
0w
0P"
0p
0t
1R"
0~
1:"
0s
0r
0L"
0z
b0 h
1!"
1o
b10001 %
b10001 g
b10001 j
0{
0q
0e
1}
1m
0-"
0y
19"
1)"
0("
b10001 f
b10001 k
b10001 %"
05"
16"
1/
0&"
1S
02"
1Z
0*
b10000 !
b10000 &
b10000 c
b10000 ""
0N
0_
12
1>
1J
1V
1`
1(
0.
14
0:
1@
0F
1L
0R
1X
0\
0"
#22000
01
1)
02
0+
0>
0J
0V
0`
0(
1,
04
1:
0@
1F
0L
1R
0X
1\
1"
#23000
09
1-
13
0'
1B"
b10010 $
0<"
1D"
0>"
1@"
0:"
1s
b10010 %
b10010 g
b10010 j
0o
1q
0m
1-"
b10010 f
b10010 k
b10010 %"
0)"
1("
1&"
b10001 !
b10001 &
b10001 c
b10001 ""
1*
0/
10
1>
1J
1V
1`
1(
0,
14
0:
1@
0F
1L
0R
1X
0\
0"
#24000
0=
1+
11
15
00
0)
0>
07
0J
0V
0`
0(
1.
04
18
0@
1F
0L
1R
0X
1\
1"
#25000
0-
1'
b10011 $
1<"
1>"
1:"
b10011 %
b10011 g
b10011 j
1o
1m
b10011 f
b10011 k
b10011 %"
1)"
0("
1*"
1/
0&"
16
b10010 !
b10010 &
b10010 c
b10010 ""
0*
0;
12
1<
1J
1V
1`
1(
0.
14
08
1@
0F
1L
0R
1X
0\
0"
#26000
01
1)
02
0+
0<
0J
0V
0`
0(
1,
04
18
0@
1F
0L
1R
0X
1\
1"
#27000
0E
1?
19
1H"
1-
03
1J"
0'
0B"
1F"
b10100 $
0<"
0D"
1w
0>"
0@"
0:"
0s
1u
b10100 %
b10100 g
b10100 j
0o
11"
0q
1,"
0m
0-"
b10100 f
b10100 k
b10100 %"
0)"
1("
1&"
b10011 !
b10011 &
b10011 c
b10011 ""
1*
0/
10
1<
1J
1V
1`
1(
0,
14
08
1@
0F
1L
0R
1X
0\
0"
#28000
0I
1+
11
17
1=
1A
00
0)
0<
05
0J
0C
0V
0`
0(
1.
04
1:
0@
1D
0L
1R
0X
1\
1"
#29000
1Q
0K
0E
0N"
0-
19
1?
0P"
1'
03
1H"
0L"
1<"
b10101 $
0B"
1J"
0{
1>"
0D"
1F"
1:"
0@"
1w
0y
1o
b10101 %
b10101 g
b10101 j
0s
05"
1u
00"
1m
0q
0,"
11"
1)"
0("
b10101 f
b10101 k
b10101 %"
0-"
1."
1/
0&"
1;
0*"
1B
0*
b10100 !
b10100 &
b10100 c
b10100 ""
06
0G
12
1>
1H
1V
1`
1(
0.
14
0:
1@
0D
1L
0R
1X
0\
0"
#30000
01
1)
02
0+
0>
0H
0V
0`
0(
1,
04
1:
0@
1D
0L
1R
0X
1\
1"
#31000
09
1-
13
0'
1B"
b10110 $
0<"
1D"
0>"
1@"
0:"
1s
b10110 %
b10110 g
b10110 j
0o
1q
0m
1-"
b10110 f
b10110 k
b10110 %"
0)"
1("
1&"
b10101 !
b10101 &
b10101 c
b10101 ""
1*
0/
10
1>
1H
1V
1`
1(
0,
14
0:
1@
0D
1L
0R
1X
0\
0"
