f3/my_counter.vcd
$date
	Tue Jan  5 00:50:52 2021
$end
$version
	Icarus Verilog
$end
$timescale
	10ps
$end
$scope module t_my_counter $end
$var wire 1 ! Q_C $end
$var wire 1 " Q_B $end
$var wire 1 # Q_A $end
$var reg 1 $ En $end
$var reg 1 % rst $end
$scope module ff1 $end
$var wire 1 & T_A $end
$var wire 1 ' T_B $end
$var wire 1 ( T_C $end
$var wire 1 ) Ta_1 $end
$var wire 1 * Ta_2 $end
$var wire 1 + Ta_3 $end
$var wire 1 , Tb_1 $end
$var wire 1 - Tb_2 $end
$var wire 1 . Tc_1 $end
$var wire 1 / Tc_2 $end
$var wire 1 $ clk $end
$var wire 1 0 not_A $end
$var wire 1 1 not_B $end
$var wire 1 2 not_C $end
$var wire 1 % rst $end
$var wire 1 ! Q_C $end
$var wire 1 " Q_B $end
$var wire 1 # Q_A $end
$scope module ffA $end
$var wire 1 & T $end
$var wire 1 $ clk $end
$var wire 1 3 not_rst $end
$var wire 1 # real_Q $end
$var wire 1 % rst $end
$var wire 1 4 xor_T $end
$var wire 1 5 Q $end
$scope module DFF $end
$var wire 1 4 D $end
$var wire 1 $ clk $end
$var wire 1 6 not_clk $end
$var wire 1 7 tmp $end
$var wire 1 5 Q $end
$scope module first_latch $end
$var wire 1 4 D $end
$var wire 1 6 En $end
$var wire 1 7 Q $end
$var wire 1 8 Q_bar $end
$var wire 1 9 down_wire $end
$var wire 1 : not_D $end
$var wire 1 ; up_wire $end
$upscope $end
$scope module second_latch $end
$var wire 1 7 D $end
$var wire 1 $ En $end
$var wire 1 5 Q $end
$var wire 1 < Q_bar $end
$var wire 1 = down_wire $end
$var wire 1 > not_D $end
$var wire 1 ? up_wire $end
$upscope $end
$upscope $end
$upscope $end
$scope module ffB $end
$var wire 1 ' T $end
$var wire 1 $ clk $end
$var wire 1 @ not_rst $end
$var wire 1 " real_Q $end
$var wire 1 % rst $end
$var wire 1 A xor_T $end
$var wire 1 B Q $end
$scope module DFF $end
$var wire 1 A D $end
$var wire 1 $ clk $end
$var wire 1 C not_clk $end
$var wire 1 D tmp $end
$var wire 1 B Q $end
$scope module first_latch $end
$var wire 1 A D $end
$var wire 1 C En $end
$var wire 1 D Q $end
$var wire 1 E Q_bar $end
$var wire 1 F down_wire $end
$var wire 1 G not_D $end
$var wire 1 H up_wire $end
$upscope $end
$scope module second_latch $end
$var wire 1 D D $end
$var wire 1 $ En $end
$var wire 1 B Q $end
$var wire 1 I Q_bar $end
$var wire 1 J down_wire $end
$var wire 1 K not_D $end
$var wire 1 L up_wire $end
$upscope $end
$upscope $end
$upscope $end
$scope module ffC $end
$var wire 1 ( T $end
$var wire 1 $ clk $end
$var wire 1 M not_rst $end
$var wire 1 ! real_Q $end
$var wire 1 % rst $end
$var wire 1 N xor_T $end
$var wire 1 O Q $end
$scope module DFF $end
$var wire 1 N D $end
$var wire 1 $ clk $end
$var wire 1 P not_clk $end
$var wire 1 Q tmp $end
$var wire 1 O Q $end
$scope module first_latch $end
$var wire 1 N D $end
$var wire 1 P En $end
$var wire 1 Q Q $end
$var wire 1 R Q_bar $end
$var wire 1 S down_wire $end
$var wire 1 T not_D $end
$var wire 1 U up_wire $end
$upscope $end
$scope module second_latch $end
$var wire 1 Q D $end
$var wire 1 $ En $end
$var wire 1 O Q $end
$var wire 1 V Q_bar $end
$var wire 1 W down_wire $end
$var wire 1 X not_D $end
$var wire 1 Y up_wire $end
$upscope $end
$upscope $end
$upscope $end
$upscope $end
$upscope $end
$enddefinitions $end
#0
$dumpvars
xY
xX
xW
xV
0U
0T
0S
xR
xQ
0P
xO
1N
0M
xL
xK
xJ
xI
0H
0G
0F
xE
xD
0C
xB
1A
0@
x?
x>
x=
x<
0;
1:
09
x8
x7
06
x5
04
03
12
11
10
1/
1.
0-
1,
0+
0*
0)
1(
1'
0&
1%
1$
0#
0"
0!
$end
#500
0K
0X
18
1>
1D
1Q
07
0E
0R
1;
1F
1S
16
0?
0=
1C
0L
0J
1P
0Y
0W
0$
#1000
0(
0:
0G
0/
0T
0'
1&
0,
0.
1<
1B
1O
14
10
1A
0)
01
1N
0-
1+
0*
02
0;
05
0F
0I
0S
0V
0#
1"
1!
06
1?
0C
1J
0P
1W
13
1@
1M
1$
0%
#1500
0>
17
08
19
1F
1S
16
0?
1C
0J
1P
0W
0$
#2000
1G
0A
0&
0:
1'
0+
14
1-
00
1#
15
09
0<
0F
0S
06
1=
0C
1J
0P
1W
1$
#2500
1E
1K
0D
19
1H
1S
16
0=
1C
0J
1P
0W
0$
#3000
1:
04
1&
1G
0'
1*
0A
0-
11
1I
0"
09
0H
0B
0S
06
1=
0C
1L
0P
1W
1$
#3500
18
1>
07
1;
1H
1S
16
0=
1C
0L
1P
0W
0$
#4000
1T
0N
1(
0:
1+
1/
14
10
1<
0#
0;
05
0H
0S
06
1?
0C
1L
0P
1W
1$
#4500
0>
17
1R
1X
08
0Q
19
1H
1U
16
0?
1C
0L
1P
0W
0$
#5000
0G
0(
1A
0/
1'
00
1T
0&
1,
0.
1#
0N
0+
0*
12
15
1V
0!
09
0<
0H
0U
0O
06
1=
0C
1L
0P
1Y
1$
#5500
0K
1D
0E
19
1F
1U
16
0=
1C
0L
1P
0Y
0$
#6000
1:
04
0'
0G
1&
0,
1A
1)
01
1"
1B
09
0F
0I
0U
06
1=
0C
1J
0P
1Y
1$
#6500
18
1>
07
1;
1F
1U
16
0=
1C
0J
1P
0Y
0$
#7000
0T
1N
1(
1:
0&
1.
04
0)
10
1<
0#
0;
05
0F
0U
06
1?
0C
1J
0P
1Y
1$
#7500
0X
1Q
0R
1;
1F
1S
16
0?
1C
0J
1P
0Y
0$
#8000
0:
14
0(
0T
1&
0.
1N
1+
02
1!
1O
0;
0F
0S
0V
06
1?
0C
1J
0P
1W
1$
#8500
0>
17
08
19
1F
1S
16
0?
1C
0J
1P
0W
0$
#9000
1G
0A
0&
0:
1'
0+
14
1-
00
1#
15
09
0<
0F
0S
06
1=
0C
1J
0P
1W
1$
#9500
1E
1K
0D
19
1H
1S
16
0=
1C
0J
1P
0W
0$
#10000
1:
04
1&
1G
0'
1*
0A
0-
11
1I
0"
09
0H
0B
0S
06
1=
0C
1L
0P
1W
1$
#10500
18
1>
07
1;
1H
1S
16
0=
1C
0L
1P
0W
0$
#11000
1T
0N
1(
0:
1+
1/
14
10
1<
0#
0;
05
0H
0S
06
1?
0C
1L
0P
1W
1$
#11500
0>
17
1R
1X
08
0Q
19
1H
1U
16
0?
1C
0L
1P
0W
0$
#12000
0G
0(
1A
0/
1'
00
1T
0&
1,
0.
1#
0N
0+
0*
12
15
1V
0!
09
0<
0H
0U
0O
06
1=
0C
1L
0P
1Y
1$
#12500
0K
1D
0E
19
1F
1U
16
0=
1C
0L
1P
0Y
0$
#13000
1:
04
0'
0G
1&
0,
1A
1)
01
1"
1B
09
0F
0I
0U
06
1=
0C
1J
0P
1Y
1$
#13500
18
1>
07
1;
1F
1U
16
0=
1C
0J
1P
0Y
0$
#14000
0T
1N
1(
1:
0&
1.
04
0)
10
1<
0#
0;
05
0F
0U
06
1?
0C
1J
0P
1Y
1$
#14500
0X
1Q
0R
1;
1F
1S
16
0?
1C
0J
1P
0Y
0$
#15000
0:
14
0(
0T
1&
0.
1N
1+
02
1!
1O
0;
0F
0S
0V
06
1?
0C
1J
0P
1W
1$
#15500
0>
17
08
19
1F
1S
16
0?
1C
0J
1P
0W
0$
#16000
1G
0A
0&
0:
1'
0+
14
1-
00
1#
15
09
0<
0F
0S
06
1=
0C
1J
0P
1W
1$
#16500
1E
1K
0D
19
1H
1S
16
0=
1C
0J
1P
0W
0$
#17000
1:
04
1&
1G
0'
1*
0A
0-
11
1I
0"
09
0H
0B
0S
06
1=
0C
1L
0P
1W
1$
#17500
18
1>
07
1;
1H
1S
16
0=
1C
0L
1P
0W
0$
#18000
1T
0N
1(
0:
1+
1/
14
10
1<
0#
0;
05
0H
0S
06
1?
0C
1L
0P
1W
1$
#18500
0>
17
1R
1X
08
0Q
19
1H
1U
16
0?
1C
0L
1P
0W
0$
#19000
0G
0(
1A
0/
1'
00
1T
0&
1,
0.
1#
0N
0+
0*
12
15
1V
0!
09
0<
0H
0U
0O
06
1=
0C
1L
0P
1Y
1$
#19500
0K
1D
0E
19
1F
1U
16
0=
1C
0L
1P
0Y
0$
#20000
1:
04
0'
0G
1&
0,
1A
1)
01
1"
1B
09
0F
0I
0U
06
1=
0C
1J
0P
1Y
1$
#20500
18
1>
07
1;
1F
1U
16
0=
1C
0J
1P
0Y
0$
#21000
0T
1N
1(
1:
0&
1.
04
0)
10
1<
0#
0;
05
0F
0U
06
1?
0C
1J
0P
1Y
1$
#21500
0X
1Q
0R
1;
1F
1S
16
0?
1C
0J
1P
0Y
0$
#22000
0:
14
0(
0T
1&
0.
1N
1+
02
1!
1O
0;
0F
0S
0V
06
1?
0C
1J
0P
1W
1$
#22500
0>
17
08
19
1F
1S
16
0?
1C
0J
1P
0W
0$
#23000
1G
0A
0&
0:
1'
0+
14
1-
00
1#
15
09
0<
0F
0S
06
1=
0C
1J
0P
1W
1$
#23500
1E
1K
0D
19
1H
1S
16
0=
1C
0J
1P
0W
0$
#24000
1:
04
1&
1G
0'
1*
0A
0-
11
1I
0"
09
0H
0B
0S
06
1=
0C
1L
0P
1W
1$
#24500
18
1>
07
1;
1H
1S
16
0=
1C
0L
1P
0W
0$
#25000
1T
0N
1(
0:
1+
1/
14
10
1<
0#
0;
05
0H
0S
06
1?
0C
1L
0P
1W
1$
#25500
0>
17
1R
1X
08
0Q
19
1H
1U
16
0?
1C
0L
1P
0W
0$
#26000
0G
0(
1A
0/
1'
00
1T
0&
1,
0.
1#
0N
0+
0*
12
15
1V
0!
09
0<
0H
0U
0O
06
1=
0C
1L
0P
1Y
1$
#26500
0K
1D
0E
19
1F
1U
16
0=
1C
0L
1P
0Y
0$
#27000
1:
04
0'
0G
1&
0,
1A
1)
01
1"
1B
09
0F
0I
0U
06
1=
0C
1J
0P
1Y
1$
#27500
18
1>
07
1;
1F
1U
16
0=
1C
0J
1P
0Y
0$
#28000
0T
1N
1(
1:
0&
1.
04
0)
10
1<
0#
0;
05
0F
0U
06
1?
0C
1J
0P
1Y
1$
#28500
0X
1Q
0R
1;
1F
1S
16
0?
1C
0J
1P
0Y
0$
#29000
0:
14
0(
0T
1&
0.
1N
1+
02
1!
1O
0;
0F
0S
0V
06
1?
0C
1J
0P
1W
1$
#29500
0>
17
08
19
1F
1S
16
0?
1C
0J
1P
0W
0$
#30000
1G
0A
0&
0:
1'
0+
14
1-
00
1#
15
09
0<
0F
0S
06
1=
0C
1J
0P
1W
1$
#30500
1E
1K
0D
19
1H
1S
16
0=
1C
0J
1P
0W
0$
#31000
1:
04
1&
1G
0'
1*
0A
0-
11
1I
0"
09
0H
0B
0S
06
1=
0C
1L
0P
1W
1$
