f3/T_flip_flop.vcd
$date
	Sat Jan  2 16:25:19 2021
$end
$version
	Icarus Verilog
$end
$timescale
	10ps
$end
$scope module t_T_flip_flop $end
$var wire 1 ! Q $end
$var reg 1 " En $end
$var reg 1 # T $end
$var reg 1 $ rst $end
$scope module ff1 $end
$var wire 1 # T $end
$var wire 1 " clk $end
$var wire 1 % not_rst $end
$var wire 1 ! real_Q $end
$var wire 1 $ rst $end
$var wire 1 & xor_T $end
$var wire 1 ' Q $end
$scope module DFF $end
$var wire 1 & D $end
$var wire 1 " clk $end
$var wire 1 ( not_clk $end
$var wire 1 ) tmp $end
$var wire 1 ' Q $end
$scope module first_latch $end
$var wire 1 & D $end
$var wire 1 " En $end
$var wire 1 ) Q $end
$var wire 1 * Q_bar $end
$var wire 1 + down_wire $end
$var wire 1 , not_D $end
$var wire 1 - up_wire $end
$upscope $end
$scope module second_latch $end
$var wire 1 ) D $end
$var wire 1 ( En $end
$var wire 1 ' Q $end
$var wire 1 . Q_bar $end
$var wire 1 / down_wire $end
$var wire 1 0 not_D $end
$var wire 1 1 up_wire $end
$upscope $end
$upscope $end
$upscope $end
$upscope $end
$enddefinitions $end
#0
$dumpvars
x1
x0
x/
x.
0-
1,
0+
x*
x)
1(
x'
0&
0%
1$
0#
0"
0!
$end
#500
1*
10
01
0/
0)
0(
1-
1"
#1000
1.
0'
11
1(
0-
0"
#1500
01
0(
1-
1"
#2000
11
1(
0-
0"
#2500
01
0(
1-
1"
#3000
11
1(
0-
0"
#3500
01
0(
1-
1"
#4000
11
1(
0-
0"
#4500
01
0(
1-
1"
#5000
11
1(
0-
1%
0"
0$
#5500
01
0(
1-
1"
#6000
11
1(
0-
0"
#6500
01
0(
1-
1"
#7000
11
1(
0-
0"
#7500
01
0(
1-
1"
#8000
11
1(
0-
0"
#8500
01
0(
1-
1"
#9000
11
1(
0-
0"
#9500
01
0(
1-
1"
#10000
11
1(
0-
0"
#10500
01
0(
1-
1"
#11000
11
0,
1(
0-
1&
0"
1#
#11500
00
1)
01
0*
0(
1+
1"
#12000
1,
0&
1!
1'
0.
1/
1(
0+
0"
#12500
1*
10
0/
0)
0(
1-
1"
#13000
0,
1&
1.
0!
0'
11
1(
0-
0"
#13500
00
1)
01
0*
0(
1+
1"
#14000
1,
0&
1!
1'
0.
1/
1(
0+
0"
#14500
1*
10
0/
0)
0(
1-
1"
#15000
0,
1&
1.
0!
0'
11
1(
0-
0"
#15500
00
1)
01
0*
0(
1+
1"
#16000
1,
0&
1!
1'
0.
1/
1(
0+
0"
#16500
1*
10
0/
0)
0(
1-
1"
#17000
0,
1&
1.
0!
0'
11
1(
0-
0"
#17500
00
1)
01
0*
0(
1+
1"
#18000
1!
1'
0.
1/
0,
1(
0+
1&
0"
0#
#18500
0/
0(
1+
1"
#19000
1/
1(
0+
0"
#19500
0/
0(
1+
1"
#20000
1/
1(
0+
0"
#20500
0/
0(
1+
1"
#21000
1/
1(
0+
0"
#21500
0/
0(
1+
1"
#22000
1/
1(
0+
0"
#22500
0/
0(
1+
1"
#23000
1/
1(
0+
0"
#23500
0/
0(
1+
1"
#24000
1/
1(
0+
0"
#24500
1*
10
0)
1-
0/
1,
0(
0&
1"
1#
#25000
0,
1&
1.
0!
0'
11
1(
0-
0"
#25500
00
1)
01
0*
0(
1+
1"
#26000
1,
0&
1!
1'
0.
1/
1(
0+
0"
#26500
1*
10
0/
0)
0(
1-
1"
#27000
0,
1&
1.
0!
0'
11
1(
0-
0"
#27500
00
1)
01
0*
0(
1+
1"
#28000
1,
0&
1!
1'
0.
1/
1(
0+
0"
#28500
1*
10
0/
0)
0(
1-
1"
#29000
0,
1&
1.
0!
0'
11
1(
0-
0"
#29500
00
1)
01
0*
0(
1+
1"
#30000
1,
0&
1!
1'
0.
1/
1(
0+
0"
#30500
1*
10
0/
0)
0(
1-
1"
#31000
0,
1&
1.
0!
0'
11
1(
0-
0"
#31500
00
1)
01
0*
0(
1+
1"
#32000
1,
0&
1!
1'
0.
1/
1(
0+
0"
#32500
1*
10
0/
0)
0(
1-
1"
