SM/sm.vcd
$date
	Sun Dec  6 00:01:45 2020
$end
$version
	Icarus Verilog
$end
$timescale
	10ps
$end
$scope module t_sm $end
$var wire 1 ! Q $end
$var reg 1 " En $end
$var reg 1 # a $end
$var reg 1 $ b $end
$var reg 1 % rst $end
$scope module sm1 $end
$var wire 1 # a $end
$var wire 1 & ab $end
$var wire 1 ' abo $end
$var wire 1 $ b $end
$var wire 1 " clk $end
$var wire 1 % rst $end
$var wire 1 ! opt $end
$var wire 1 ( ipt $end
$scope module d $end
$var wire 1 " clk $end
$var wire 1 ) not_clk $end
$var wire 1 * tmp $end
$var wire 1 ! Q $end
$var wire 1 ( D $end
$scope module first_latch $end
$var wire 1 ) En $end
$var wire 1 * Q $end
$var wire 1 + Q_bar $end
$var wire 1 , down_wire $end
$var wire 1 - not_D $end
$var wire 1 . up_wire $end
$var wire 1 ( D $end
$upscope $end
$scope module second_latch $end
$var wire 1 * D $end
$var wire 1 " En $end
$var wire 1 ! Q $end
$var wire 1 / Q_bar $end
$var wire 1 0 down_wire $end
$var wire 1 1 not_D $end
$var wire 1 2 up_wire $end
$upscope $end
$upscope $end
$scope module m $end
$var wire 1 ' A $end
$var wire 1 3 B $end
$var wire 1 ( Q $end
$var wire 1 4 not_select $end
$var wire 1 % select $end
$var wire 1 5 tmp1 $end
$var wire 1 6 tmp2 $end
$upscope $end
$upscope $end
$upscope $end
$enddefinitions $end
#0
$dumpvars
06
05
04
03
02
11
00
x/
1.
1-
0,
1+
0*
1)
0(
x'
0&
1%
0$
0#
0"
x!
$end
#1000
1/
0'
0.
0!
0)
12
1"
#2000
1.
1)
02
14
0"
0%
#3000
0.
0)
12
1"
#4000
1.
1)
02
0"
#5000
0-
1(
15
0.
1'
0)
12
1&
1"
1#
#6000
01
1*
0+
1,
1)
02
0"
#7000
1-
0(
05
0'
1!
0,
0/
0)
10
1"
#8000
1+
11
0*
1.
1)
00
0"
#9000
0-
1(
15
1/
1'
0.
0!
0)
12
1"
#10000
01
1*
0+
1,
1)
02
0"
1$
0#
#11000
1-
0(
05
0'
1!
0,
0/
0)
10
1"
#12000
1+
11
0*
1.
1)
00
0"
#13000
0-
1(
15
1/
1'
0.
0!
0)
12
1"
#14000
01
1*
0+
1,
1)
02
0"
#15000
0-
1(
1!
15
0,
0/
1'
0)
10
0&
1"
0$
#16000
1,
1)
00
0"
#17000
0,
0)
10
1"
#18000
1,
1)
00
0"
#19000
0,
0)
10
1"
#20000
1+
11
0*
1.
1-
0(
05
0,
0'
1)
00
1&
0"
1#
#21000
0-
1(
15
1/
1'
0.
0!
0)
12
1"
#22000
01
1*
0+
1,
1)
02
0"
#23000
1-
0(
05
0'
1!
0,
0/
0)
10
1"
#24000
1+
11
0*
1.
1)
00
0"
#25000
1-
0(
1/
05
0.
0!
0'
0)
12
0&
1"
0#
#26000
1.
1)
02
0"
#27000
0.
0)
12
1"
#28000
1.
1)
02
0"
#29000
0.
0)
12
1"
#30000
1.
1)
02
0"
