f4/my_counter.vcd
$date
	Tue Jan  5 02:13:44 2021
$end
$version
	Icarus Verilog
$end
$timescale
	10ps
$end
$scope module t_my_counter $end
$var wire 1 ! out_Z $end
$var reg 1 " En $end
$var reg 1 # X_1 $end
$var reg 1 $ X_2 $end
$var reg 1 % rst $end
$scope module ff1 $end
$var wire 1 & Q1_1 $end
$var wire 1 ' Q1_2 $end
$var wire 1 ( Q1_3 $end
$var wire 1 ) Q2_1 $end
$var wire 1 * Q2_2 $end
$var wire 1 + Q2_3 $end
$var wire 1 , Q2_4 $end
$var wire 1 # X_1 $end
$var wire 1 $ X_2 $end
$var wire 1 " clk $end
$var wire 1 - not_Q1 $end
$var wire 1 . not_Q2 $end
$var wire 1 / not_X1 $end
$var wire 1 0 not_X2 $end
$var wire 1 1 not_rst $end
$var wire 1 2 nxt_Q1 $end
$var wire 1 3 nxt_Q2 $end
$var wire 1 ! out_z $end
$var wire 1 4 real_nxt_Q1 $end
$var wire 1 5 real_nxt_Q2 $end
$var wire 1 % rst $end
$var wire 1 6 Q_2 $end
$var wire 1 7 Q_1 $end
$scope module DFFA $end
$var wire 1 4 D $end
$var wire 1 " clk $end
$var wire 1 8 not_clk $end
$var wire 1 9 tmp $end
$var wire 1 7 Q $end
$scope module first_latch $end
$var wire 1 4 D $end
$var wire 1 8 En $end
$var wire 1 9 Q $end
$var wire 1 : Q_bar $end
$var wire 1 ; down_wire $end
$var wire 1 < not_D $end
$var wire 1 = up_wire $end
$upscope $end
$scope module second_latch $end
$var wire 1 9 D $end
$var wire 1 " En $end
$var wire 1 7 Q $end
$var wire 1 > Q_bar $end
$var wire 1 ? down_wire $end
$var wire 1 @ not_D $end
$var wire 1 A up_wire $end
$upscope $end
$upscope $end
$scope module DFFB $end
$var wire 1 5 D $end
$var wire 1 " clk $end
$var wire 1 B not_clk $end
$var wire 1 C tmp $end
$var wire 1 6 Q $end
$scope module first_latch $end
$var wire 1 5 D $end
$var wire 1 B En $end
$var wire 1 C Q $end
$var wire 1 D Q_bar $end
$var wire 1 E down_wire $end
$var wire 1 F not_D $end
$var wire 1 G up_wire $end
$upscope $end
$scope module second_latch $end
$var wire 1 C D $end
$var wire 1 " En $end
$var wire 1 6 Q $end
$var wire 1 H Q_bar $end
$var wire 1 I down_wire $end
$var wire 1 J not_D $end
$var wire 1 K up_wire $end
$upscope $end
$upscope $end
$upscope $end
$upscope $end
$enddefinitions $end
#0
$dumpvars
xK
xJ
xI
xH
0G
1F
0E
xD
xC
0B
xA
x@
x?
x>
0=
1<
0;
x:
x9
08
x7
x6
05
04
x3
x2
01
x0
x/
x.
x-
x,
x+
x*
x)
x(
x'
x&
1%
x$
x#
1"
x!
$end
#500
1:
1@
1D
1J
09
0C
1=
1G
18
0A
0?
1B
0K
0I
0"
#1000
03
02
1>
1-
1H
0*
1.
0'
0!
1<
1F
0=
07
0G
06
04
05
08
1A
0B
1K
10
0+
0&
0(
1/
0)
0,
11
1"
0$
0#
0%
#1500
1=
1G
18
0A
1B
0K
0"
#2000
0=
0G
08
1A
0B
1K
1"
#2500
1=
1G
18
0A
1B
0K
0"
#3000
0=
0G
08
1A
0B
1K
1"
#3500
1=
1G
18
0A
1B
0K
0"
#4000
0=
0G
08
1A
0B
1K
1"
#4500
1=
1G
18
0A
1B
0K
0"
#5000
0=
0G
08
1A
0B
1K
1"
#5500
1=
1G
18
0A
1B
0K
0"
#6000
0=
0G
08
1A
0B
1K
1"
#6500
1=
1G
18
0A
1B
0K
0"
#7000
0=
0G
08
1A
0B
1K
1"
#7500
1=
1G
18
0A
1B
0K
0"
#8000
0=
0G
08
1A
0B
1K
1"
#8500
1=
1G
18
0A
1B
0K
0"
#9000
0=
0G
08
1A
0B
1K
1"
#9500
1=
1G
18
0A
1B
0K
0"
#10000
0=
0G
08
1A
0B
1K
1"
#10500
1=
1G
18
0A
1B
0K
0"
#11000
0=
0G
08
1A
0B
1K
1"
#11500
1=
1G
18
0A
1B
0K
0"
#12000
0=
0G
08
1A
0B
1K
1"
#12500
1=
1G
18
0A
1B
0K
0"
#13000
0=
0G
08
1A
0B
1K
1"
#13500
1=
1G
18
0A
1B
0K
0"
#14000
0=
0G
08
1A
0B
1K
1"
#14500
1=
1G
18
0A
1B
0K
0"
#15000
0=
0G
08
1A
0B
1K
1"
#15500
1=
1G
18
0A
1B
0K
0"
#16000
0=
0G
08
1A
0B
1K
1"
#16500
1=
1G
18
0A
1B
0K
0"
#17000
0=
0G
08
1A
0B
1K
1"
#17500
1=
1G
18
0A
1B
0K
0"
#18000
0=
0G
08
1A
0B
1K
1"
#18500
1=
1G
18
0A
1B
0K
0"
#19000
0=
0G
08
1A
0B
1K
1"
#19500
1=
1G
18
0A
1B
0K
0"
#20000
0=
0G
08
1A
0B
1K
1"
#20500
1=
1G
18
0A
1B
0K
0"
#21000
0=
0G
08
1A
0B
1K
1"
#21500
1=
1G
18
0A
1B
0K
0"
#22000
0=
0G
08
1A
0B
1K
1"
#22500
1=
1G
18
0A
1B
0K
0"
#23000
0=
0G
08
1A
0B
1K
1"
#23500
1=
1G
18
0A
1B
0K
0"
#24000
0=
0G
08
1A
0B
1K
1"
#24500
1=
1G
18
0A
1B
0K
0"
#25000
0=
0G
08
1A
0B
1K
1"
#25500
1=
1G
18
0A
1B
0K
0"
#26000
0=
0G
08
1A
0B
1K
1"
#26500
1=
1G
18
0A
1B
0K
0"
#27000
0=
0G
08
1A
0B
1K
1"
#27500
1=
1G
18
0A
1B
0K
0"
#28000
0=
0G
08
1A
0B
1K
1"
#28500
1=
1G
18
0A
1B
0K
0"
#29000
0=
0G
08
1A
0B
1K
1"
#29500
1=
1G
18
0A
1B
0K
0"
#30000
0=
0G
08
1A
0B
1K
1"
#30500
1=
1G
18
0A
1B
0K
0"
#31000
0F
15
0=
0G
13
08
1A
0B
1K
00
1+
0/
1)
0,
1"
1$
1#
#31500
0J
1C
0D
1=
1E
18
0A
1B
0K
0"
#32000
0<
14
12
0.
1(
16
0=
0E
0H
08
1A
0B
1I
1"
#32500
0@
19
0:
1;
1E
18
0A
1B
0I
0"
#33000
1F
05
03
0)
0+
0-
1'
1&
1!
17
0;
0>
0E
08
1?
0B
1I
1"
#33500
1D
1J
0C
1;
1G
18
0?
1B
0I
0"
#34000
1H
1.
0(
0'
0!
0;
0G
06
08
1?
0B
1K
1"
#34500
1;
1G
18
0?
1B
0K
0"
#35000
0;
0G
08
1?
0B
1K
1"
#35500
1;
1G
18
0?
1B
0K
0"
#36000
0;
0G
08
1?
0B
1K
1"
#36500
1;
1G
18
0?
1B
0K
0"
#37000
0;
0G
08
1?
0B
1K
1"
#37500
1;
1G
18
0?
1B
0K
0"
#38000
0;
0G
08
1?
0B
1K
1"
#38500
1;
1G
18
0?
1B
0K
0"
#39000
0;
0G
08
1?
0B
1K
1"
#39500
1;
1G
18
0?
1B
0K
0"
#40000
0;
0G
08
1?
0B
1K
1"
#40500
1;
1G
18
0?
1B
0K
0"
#41000
0;
0G
08
1?
0B
1K
1"
#41500
1;
1G
18
0?
1B
0K
0"
#42000
0;
0G
08
1?
0B
1K
1"
#42500
1;
1G
18
0?
1B
0K
0"
#43000
0;
0G
08
1?
0B
1K
1"
#43500
1;
1G
18
0?
1B
0K
0"
#44000
0;
0G
08
1?
0B
1K
1"
#44500
1;
1G
18
0?
1B
0K
0"
#45000
0;
0G
08
1?
0B
1K
1"
#45500
1;
1G
18
0?
1B
0K
0"
#46000
0;
0G
08
1?
0B
1K
1"
#46500
1;
1G
18
0?
1B
0K
0"
#47000
0;
0G
08
1?
0B
1K
1"
#47500
1;
1G
18
0?
1B
0K
0"
#48000
0;
0G
08
1?
0B
1K
1"
#48500
1;
1G
18
0?
1B
0K
0"
#49000
0;
0G
08
1?
0B
1K
1"
#49500
1;
1G
18
0?
1B
0K
0"
#50000
0;
0G
08
1?
0B
1K
1"
#50500
1;
1G
18
0?
1B
0K
0"
#51000
0;
0G
08
1?
0B
1K
1"
#51500
1;
1G
18
0?
1B
0K
0"
#52000
0;
0G
08
1?
0B
1K
1"
#52500
1;
1G
18
0?
1B
0K
0"
#53000
0;
0G
08
1?
0B
1K
1"
#53500
1;
1G
18
0?
1B
0K
0"
#54000
0;
0G
08
1?
0B
1K
1"
#54500
1;
1G
18
0?
1B
0K
0"
#55000
0;
0G
08
1?
0B
1K
1"
#55500
1;
1G
18
0?
1B
0K
0"
#56000
0;
0G
08
1?
0B
1K
1"
#56500
1;
1G
18
0?
1B
0K
0"
#57000
0;
0G
08
1?
0B
1K
1"
#57500
1;
1G
18
0?
1B
0K
0"
#58000
0;
0G
08
1?
0B
1K
1"
#58500
1;
1G
18
0?
1B
0K
0"
#59000
0;
0G
08
1?
0B
1K
1"
#59500
1;
1G
18
0?
1B
0K
0"
#60000
0;
0G
08
1?
0B
1K
1"
#60500
1;
1G
18
0?
1B
0K
0"
#61000
0;
0G
08
1?
0B
1K
1"
