f5/my_counter.vcd
$date
	Tue Jan  5 10:33:13 2021
$end
$version
	Icarus Verilog
$end
$timescale
	10ps
$end
$scope module t_my_counter $end
$var wire 1 ! Q_C $end
$var wire 1 " Q_B $end
$var wire 1 # Q_A $end
$var reg 1 $ En $end
$var reg 1 % X_1 $end
$var reg 1 & rst $end
$scope module ff1 $end
$var wire 1 ' A_1 $end
$var wire 1 ( A_2 $end
$var wire 1 ) A_3 $end
$var wire 1 * B_1 $end
$var wire 1 + B_2 $end
$var wire 1 , B_3 $end
$var wire 1 - C_1 $end
$var wire 1 . C_2 $end
$var wire 1 # Q_A $end
$var wire 1 " Q_B $end
$var wire 1 ! Q_C $end
$var wire 1 / Q_X $end
$var wire 1 % X_1 $end
$var wire 1 0 Z_1 $end
$var wire 1 1 Z_2 $end
$var wire 1 2 Z_3 $end
$var wire 1 $ clk $end
$var wire 1 3 not_A $end
$var wire 1 4 not_B $end
$var wire 1 5 not_C $end
$var wire 1 6 not_X $end
$var wire 1 7 not_rst $end
$var wire 1 8 nxt_A $end
$var wire 1 9 nxt_B $end
$var wire 1 : nxt_C $end
$var wire 1 & rst $end
$var wire 1 ; C $end
$var wire 1 < B $end
$var wire 1 = A $end
$scope module DFFA $end
$var wire 1 8 D $end
$var wire 1 $ clk $end
$var wire 1 > not_clk $end
$var wire 1 ? tmp $end
$var wire 1 = Q $end
$scope module first_latch $end
$var wire 1 8 D $end
$var wire 1 > En $end
$var wire 1 ? Q $end
$var wire 1 @ Q_bar $end
$var wire 1 A down_wire $end
$var wire 1 B not_D $end
$var wire 1 C up_wire $end
$upscope $end
$scope module second_latch $end
$var wire 1 ? D $end
$var wire 1 $ En $end
$var wire 1 = Q $end
$var wire 1 D Q_bar $end
$var wire 1 E down_wire $end
$var wire 1 F not_D $end
$var wire 1 G up_wire $end
$upscope $end
$upscope $end
$scope module DFFB $end
$var wire 1 9 D $end
$var wire 1 $ clk $end
$var wire 1 H not_clk $end
$var wire 1 I tmp $end
$var wire 1 < Q $end
$scope module first_latch $end
$var wire 1 9 D $end
$var wire 1 H En $end
$var wire 1 I Q $end
$var wire 1 J Q_bar $end
$var wire 1 K down_wire $end
$var wire 1 L not_D $end
$var wire 1 M up_wire $end
$upscope $end
$scope module second_latch $end
$var wire 1 I D $end
$var wire 1 $ En $end
$var wire 1 < Q $end
$var wire 1 N Q_bar $end
$var wire 1 O down_wire $end
$var wire 1 P not_D $end
$var wire 1 Q up_wire $end
$upscope $end
$upscope $end
$scope module DFFC $end
$var wire 1 : D $end
$var wire 1 $ clk $end
$var wire 1 R not_clk $end
$var wire 1 S tmp $end
$var wire 1 ; Q $end
$scope module first_latch $end
$var wire 1 : D $end
$var wire 1 R En $end
$var wire 1 S Q $end
$var wire 1 T Q_bar $end
$var wire 1 U down_wire $end
$var wire 1 V not_D $end
$var wire 1 W up_wire $end
$upscope $end
$scope module second_latch $end
$var wire 1 S D $end
$var wire 1 $ En $end
$var wire 1 ; Q $end
$var wire 1 X Q_bar $end
$var wire 1 Y down_wire $end
$var wire 1 Z not_D $end
$var wire 1 [ up_wire $end
$upscope $end
$upscope $end
$upscope $end
$upscope $end
$enddefinitions $end
#0
$dumpvars
x[
xZ
xY
xX
0W
0V
0U
xT
xS
0R
xQ
xP
xO
xN
0M
0L
0K
xJ
xI
0H
xG
xF
xE
xD
0C
1B
0A
x@
x?
0>
x=
x<
x;
1:
19
08
07
16
15
14
13
02
11
10
z/
0.
1-
x,
0+
1*
0)
0(
0'
1&
0%
1$
0#
0"
0!
$end
#500
0P
0Z
1@
1F
1I
1S
0?
0J
0T
1C
1K
1U
1>
0G
0E
1H
0Q
0O
1R
0[
0Y
0$
#1000
1V
0,
1B
00
0L
0:
08
01
19
0-
0*
1D
1<
1;
13
0)
0'
04
1+
05
0C
0=
0K
0N
0U
0X
0#
1"
1!
0>
1G
0H
1O
0R
1Y
17
1$
0&
#1500
1T
1Z
0S
1C
1K
1W
1>
0G
1H
0O
1R
0Y
0$
#2000
0B
1L
18
09
1'
1)
0+
15
1X
0!
0C
0K
0W
0;
0>
1G
0H
1O
0R
1[
1$
#2500
0F
1?
1J
1P
0@
0I
1A
1M
1W
1>
0G
1H
0O
1R
0[
0$
#3000
1V
1L
1B
10
0:
09
03
08
11
0-
0*
0,
1#
0)
0'
14
1=
1N
0"
0A
0D
0M
0<
0W
0>
1E
0H
1Q
0R
1[
1$
#3500
1@
1F
0?
1C
1M
1W
1>
0E
1H
0Q
1R
0[
0$
#4000
0V
0L
1:
19
1-
1*
x,
13
1D
0#
0C
0=
0M
0W
0>
1G
0H
1Q
0R
1[
1$
#4500
0P
0Z
1I
1S
0J
0T
1C
1K
1U
1>
0G
1H
0Q
1R
0[
0$
#5000
1V
00
0:
01
0-
0*
0,
04
1+
05
1"
1!
1<
1;
0C
0K
0N
0U
0X
0>
1G
0H
1O
0R
1Y
1$
#5500
1T
1Z
0S
1C
1K
1W
1>
0G
1H
0O
1R
0Y
0$
#6000
0B
1L
18
09
1'
1)
0+
15
1X
0!
0C
0K
0W
0;
0>
1G
0H
1O
0R
1[
1$
#6500
0F
1?
1J
1P
0@
0I
1A
1M
1W
1>
0G
1H
0O
1R
0[
0$
#7000
1V
1L
1B
10
0:
09
03
08
11
0-
0*
0,
1#
0)
0'
14
1=
1N
0"
0A
0D
0M
0<
0W
0>
1E
0H
1Q
0R
1[
1$
#7500
1@
1F
0?
1C
1M
1W
1>
0E
1H
0Q
1R
0[
0$
#8000
0V
0L
1:
19
1-
1*
x,
13
1D
0#
0C
0=
0M
0W
0>
1G
0H
1Q
0R
1[
1$
#8500
0P
0Z
1I
1S
0J
0T
1C
1K
1U
1>
0G
1H
0Q
1R
0[
0$
#9000
1V
00
0:
01
0-
0*
0,
04
1+
05
1"
1!
1<
1;
0C
0K
0N
0U
0X
0>
1G
0H
1O
0R
1Y
1$
#9500
1T
1Z
0S
1C
1K
1W
1>
0G
1H
0O
1R
0Y
0$
#10000
0B
1L
18
09
1'
1)
0+
15
1X
0!
0C
0K
0W
0;
0>
1G
0H
1O
0R
1[
1$
#10500
0F
1?
1J
1P
0@
0I
1A
1M
1W
1>
0G
1H
0O
1R
0[
0$
#11000
1V
1L
1B
10
0:
09
03
08
11
0-
0*
0,
1#
0)
0'
14
1=
1N
0"
0A
0D
0M
0<
0W
0>
1E
0H
1Q
0R
1[
1$
#11500
1@
1F
0?
1C
1M
1W
1>
0E
1H
0Q
1R
0[
0$
#12000
0V
0L
1:
19
1-
1*
x,
13
1D
0#
0C
0=
0M
0W
0>
1G
0H
1Q
0R
1[
1$
#12500
0P
0Z
1I
1S
0J
0T
1C
1K
1U
1>
0G
1H
0Q
1R
0[
0$
#13000
1V
00
0:
01
0-
0*
0,
04
1+
05
1"
1!
1<
1;
0C
0K
0N
0U
0X
0>
1G
0H
1O
0R
1Y
1$
#13500
1T
1Z
0S
1C
1K
1W
1>
0G
1H
0O
1R
0Y
0$
#14000
0B
1L
18
09
1'
1)
0+
15
1X
0!
0C
0K
0W
0;
0>
1G
0H
1O
0R
1[
1$
#14500
0F
1?
1J
1P
0@
0I
1A
1M
1W
1>
0G
1H
0O
1R
0[
0$
#15000
1V
1L
1B
10
0:
09
03
08
11
0-
0*
0,
1#
0)
0'
14
1=
1N
0"
0A
0D
0M
0<
0W
0>
1E
0H
1Q
0R
1[
1$
#15500
1@
1F
0?
1C
1M
1W
1>
0E
1H
0Q
1R
0[
0$
#16000
0V
0L
1:
19
1-
1*
x,
13
1D
0#
0C
0=
0M
0W
0>
1G
0H
1Q
0R
1[
1$
#16500
0P
0Z
1I
1S
0J
0T
1C
1K
1U
1>
0G
1H
0Q
1R
0[
0$
#17000
1V
00
0:
01
0-
0*
0,
04
1+
05
1"
1!
1<
1;
0C
0K
0N
0U
0X
0>
1G
0H
1O
0R
1Y
1$
#17500
1T
1Z
0S
1C
1K
1W
1>
0G
1H
0O
1R
0Y
0$
#18000
0B
1L
18
09
1'
1)
0+
15
1X
0!
0C
0K
0W
0;
0>
1G
0H
1O
0R
1[
1$
#18500
0F
1?
1J
1P
0@
0I
1A
1M
1W
1>
0G
1H
0O
1R
0[
0$
#19000
1V
1L
1B
10
0:
09
03
08
11
0-
0*
0,
1#
0)
0'
14
1=
1N
0"
0A
0D
0M
0<
0W
0>
1E
0H
1Q
0R
1[
1$
#19500
1@
1F
0?
1C
1M
1W
1>
0E
1H
0Q
1R
0[
0$
#20000
0V
0L
1:
19
1-
1*
x,
13
1D
0#
0C
0=
0M
0W
0>
1G
0H
1Q
0R
1[
1$
#20500
0P
0Z
1I
1S
0J
0T
1C
1K
1U
1>
0G
1H
0Q
1R
0[
0$
#21000
1V
00
0:
01
0-
0*
0,
04
1+
05
1"
1!
1<
1;
0C
0K
0N
0U
0X
0>
1G
0H
1O
0R
1Y
1$
#21500
1T
1Z
0S
1C
1K
1W
1>
0G
1H
0O
1R
0Y
0$
#22000
0B
1L
18
09
1'
1)
0+
15
1X
0!
0C
0K
0W
0;
0>
1G
0H
1O
0R
1[
1$
#22500
0F
1?
1J
1P
0@
0I
1A
1M
1W
1>
0G
1H
0O
1R
0[
0$
#23000
1V
1L
1B
10
0:
09
03
08
11
0-
0*
0,
1#
0)
0'
14
1=
1N
0"
0A
0D
0M
0<
0W
0>
1E
0H
1Q
0R
1[
1$
#23500
1@
1F
0?
1C
1M
1W
1>
0E
1H
0Q
1R
0[
0$
#24000
0V
0L
1:
19
1-
1*
x,
13
1D
0#
0C
0=
0M
0W
0>
1G
0H
1Q
0R
1[
1$
#24500
0P
0Z
1I
1S
0J
0T
1C
1K
1U
1>
0G
1H
0Q
1R
0[
0$
#25000
1V
00
0:
01
0-
0*
0,
04
1+
05
1"
1!
1<
1;
0C
0K
0N
0U
0X
0>
1G
0H
1O
0R
1Y
1$
#25500
1T
1Z
0S
1C
1K
1W
1>
0G
1H
0O
1R
0Y
0$
#26000
0B
1L
18
09
1'
1)
0+
15
1X
0!
0C
0K
0W
0;
0>
1G
0H
1O
0R
1[
1$
#26500
0F
1?
1J
1P
0@
0I
1A
1M
1W
1>
0G
1H
0O
1R
0[
0$
#27000
1V
1L
1B
10
0:
09
03
08
11
0-
0*
0,
1#
0)
0'
14
1=
1N
0"
0A
0D
0M
0<
0W
0>
1E
0H
1Q
0R
1[
1$
#27500
1@
1F
0?
1C
1M
1W
1>
0E
1H
0Q
1R
0[
0$
#28000
0V
0L
1:
19
1-
1*
x,
13
1D
0#
0C
0=
0M
0W
0>
1G
0H
1Q
0R
1[
1$
#28500
0P
0Z
1I
1S
0J
0T
1C
1K
1U
1>
0G
1H
0Q
1R
0[
0$
#29000
1V
00
0:
01
0-
0*
0,
04
1+
05
1"
1!
1<
1;
0C
0K
0N
0U
0X
0>
1G
0H
1O
0R
1Y
1$
#29500
1T
1Z
0S
1C
1K
1W
1>
0G
1H
0O
1R
0Y
0$
#30000
0B
1L
18
09
1'
1)
0+
15
1X
0!
0C
0K
0W
0;
0>
1G
0H
1O
0R
1[
1$
#30500
0F
1?
1J
1P
0@
0I
1A
1M
1W
1>
0G
1H
0O
1R
0[
0$
#31000
0V
1L
1:
09
1.
03
0,
1#
14
1B
1=
1N
0"
08
0A
0D
0M
0<
0W
0'
0)
00
0>
1E
0H
1Q
0R
1[
06
02
1$
1%
#31500
0Z
1@
1F
1S
0?
0T
1C
1M
1U
1>
0E
1H
0Q
1R
0[
0$
#32000
0B
1V
18
0:
1(
05
0.
13
1!
1D
0#
1;
0C
0=
0M
0U
0X
0>
1G
0H
1Q
0R
1Y
1$
#32500
0F
1?
1T
1Z
0@
0S
1A
1M
1W
1>
0G
1H
0Q
1R
0Y
0$
#33000
0V
1L
1:
1B
09
1.
03
08
0,
1#
0(
15
1=
1X
0!
0A
0D
0M
0W
0;
0>
1E
0H
1Q
0R
1[
1$
#33500
0Z
1@
1F
1S
0?
0T
1C
1M
1U
1>
0E
1H
0Q
1R
0[
0$
#34000
0B
1V
18
0:
1(
05
0.
13
1!
1D
0#
1;
0C
0=
0M
0U
0X
0>
1G
0H
1Q
0R
1Y
1$
#34500
0F
1?
1T
1Z
0@
0S
1A
1M
1W
1>
0G
1H
0Q
1R
0Y
0$
#35000
0V
1L
1:
1B
09
1.
03
08
0,
1#
0(
15
1=
1X
0!
0A
0D
0M
0W
0;
0>
1E
0H
1Q
0R
1[
1$
#35500
0Z
1@
1F
1S
0?
0T
1C
1M
1U
1>
0E
1H
0Q
1R
0[
0$
#36000
0B
1V
18
0:
1(
05
0.
13
1!
1D
0#
1;
0C
0=
0M
0U
0X
0>
1G
0H
1Q
0R
1Y
1$
#36500
0F
1?
1T
1Z
0@
0S
1A
1M
1W
1>
0G
1H
0Q
1R
0Y
0$
#37000
0V
1L
1:
1B
09
1.
03
08
0,
1#
0(
15
1=
1X
0!
0A
0D
0M
0W
0;
0>
1E
0H
1Q
0R
1[
1$
#37500
0Z
1@
1F
1S
0?
0T
1C
1M
1U
1>
0E
1H
0Q
1R
0[
0$
#38000
0B
1V
18
0:
1(
05
0.
13
1!
1D
0#
1;
0C
0=
0M
0U
0X
0>
1G
0H
1Q
0R
1Y
1$
#38500
0F
1?
1T
1Z
0@
0S
1A
1M
1W
1>
0G
1H
0Q
1R
0Y
0$
#39000
0V
1L
1:
1B
09
1.
03
08
0,
1#
0(
15
1=
1X
0!
0A
0D
0M
0W
0;
0>
1E
0H
1Q
0R
1[
1$
#39500
0Z
1@
1F
1S
0?
0T
1C
1M
1U
1>
0E
1H
0Q
1R
0[
0$
#40000
0B
1V
18
0:
1(
05
0.
13
1!
1D
0#
1;
0C
0=
0M
0U
0X
0>
1G
0H
1Q
0R
1Y
1$
#40500
0F
1?
1T
1Z
0@
0S
1A
1M
1W
1>
0G
1H
0Q
1R
0Y
0$
#41000
0V
1L
1:
1B
09
1.
03
08
0,
1#
0(
15
1=
1X
0!
0A
0D
0M
0W
0;
0>
1E
0H
1Q
0R
1[
1$
#41500
0Z
1@
1F
1S
0?
0T
1C
1M
1U
1>
0E
1H
0Q
1R
0[
0$
#42000
0B
1V
18
0:
1(
05
0.
13
1!
1D
0#
1;
0C
0=
0M
0U
0X
0>
1G
0H
1Q
0R
1Y
1$
#42500
0F
1?
1T
1Z
0@
0S
1A
1M
1W
1>
0G
1H
0Q
1R
0Y
0$
#43000
0V
1L
1:
1B
09
1.
03
08
0,
1#
0(
15
1=
1X
0!
0A
0D
0M
0W
0;
0>
1E
0H
1Q
0R
1[
1$
#43500
0Z
1@
1F
1S
0?
0T
1C
1M
1U
1>
0E
1H
0Q
1R
0[
0$
#44000
0B
1V
18
0:
1(
05
0.
13
1!
1D
0#
1;
0C
0=
0M
0U
0X
0>
1G
0H
1Q
0R
1Y
1$
#44500
0F
1?
1T
1Z
0@
0S
1A
1M
1W
1>
0G
1H
0Q
1R
0Y
0$
#45000
0V
1L
1:
1B
09
1.
03
08
0,
1#
0(
15
1=
1X
0!
0A
0D
0M
0W
0;
0>
1E
0H
1Q
0R
1[
1$
#45500
0Z
1@
1F
1S
0?
0T
1C
1M
1U
1>
0E
1H
0Q
1R
0[
0$
#46000
0B
1V
18
0:
1(
05
0.
13
1!
1D
0#
1;
0C
0=
0M
0U
0X
0>
1G
0H
1Q
0R
1Y
1$
#46500
0F
1?
1T
1Z
0@
0S
1A
1M
1W
1>
0G
1H
0Q
1R
0Y
0$
#47000
0V
1L
1:
1B
09
1.
03
08
0,
1#
0(
15
1=
1X
0!
0A
0D
0M
0W
0;
0>
1E
0H
1Q
0R
1[
1$
#47500
0Z
1@
1F
1S
0?
0T
1C
1M
1U
1>
0E
1H
0Q
1R
0[
0$
#48000
0B
1V
18
0:
1(
05
0.
13
1!
1D
0#
1;
0C
0=
0M
0U
0X
0>
1G
0H
1Q
0R
1Y
1$
#48500
0F
1?
1T
1Z
0@
0S
1A
1M
1W
1>
0G
1H
0Q
1R
0Y
0$
#49000
0V
1L
1:
1B
09
1.
03
08
0,
1#
0(
15
1=
1X
0!
0A
0D
0M
0W
0;
0>
1E
0H
1Q
0R
1[
1$
#49500
0Z
1@
1F
1S
0?
0T
1C
1M
1U
1>
0E
1H
0Q
1R
0[
0$
#50000
0B
1V
18
0:
1(
05
0.
13
1!
1D
0#
1;
0C
0=
0M
0U
0X
0>
1G
0H
1Q
0R
1Y
1$
#50500
0F
1?
1T
1Z
0@
0S
1A
1M
1W
1>
0G
1H
0Q
1R
0Y
0$
#51000
0V
1L
1:
1B
09
1.
03
08
0,
1#
0(
15
1=
1X
0!
0A
0D
0M
0W
0;
0>
1E
0H
1Q
0R
1[
1$
#51500
0Z
1@
1F
1S
0?
0T
1C
1M
1U
1>
0E
1H
0Q
1R
0[
0$
#52000
0B
1V
18
0:
1(
05
0.
13
1!
1D
0#
1;
0C
0=
0M
0U
0X
0>
1G
0H
1Q
0R
1Y
1$
#52500
0F
1?
1T
1Z
0@
0S
1A
1M
1W
1>
0G
1H
0Q
1R
0Y
0$
#53000
0V
1L
1:
1B
09
1.
03
08
0,
1#
0(
15
1=
1X
0!
0A
0D
0M
0W
0;
0>
1E
0H
1Q
0R
1[
1$
#53500
0Z
1@
1F
1S
0?
0T
1C
1M
1U
1>
0E
1H
0Q
1R
0[
0$
#54000
0B
1V
18
0:
1(
05
0.
13
1!
1D
0#
1;
0C
0=
0M
0U
0X
0>
1G
0H
1Q
0R
1Y
1$
#54500
0F
1?
1T
1Z
0@
0S
1A
1M
1W
1>
0G
1H
0Q
1R
0Y
0$
#55000
0V
1L
1:
1B
09
1.
03
08
0,
1#
0(
15
1=
1X
0!
0A
0D
0M
0W
0;
0>
1E
0H
1Q
0R
1[
1$
#55500
0Z
1@
1F
1S
0?
0T
1C
1M
1U
1>
0E
1H
0Q
1R
0[
0$
#56000
0B
1V
18
0:
1(
05
0.
13
1!
1D
0#
1;
0C
0=
0M
0U
0X
0>
1G
0H
1Q
0R
1Y
1$
#56500
0F
1?
1T
1Z
0@
0S
1A
1M
1W
1>
0G
1H
0Q
1R
0Y
0$
#57000
0V
1L
1:
1B
09
1.
03
08
0,
1#
0(
15
1=
1X
0!
0A
0D
0M
0W
0;
0>
1E
0H
1Q
0R
1[
1$
#57500
0Z
1@
1F
1S
0?
0T
1C
1M
1U
1>
0E
1H
0Q
1R
0[
0$
#58000
0B
1V
18
0:
1(
05
0.
13
1!
1D
0#
1;
0C
0=
0M
0U
0X
0>
1G
0H
1Q
0R
1Y
1$
#58500
0F
1?
1T
1Z
0@
0S
1A
1M
1W
1>
0G
1H
0Q
1R
0Y
0$
#59000
0V
1L
1:
1B
09
1.
03
08
0,
1#
0(
15
1=
1X
0!
0A
0D
0M
0W
0;
0>
1E
0H
1Q
0R
1[
1$
#59500
0Z
1@
1F
1S
0?
0T
1C
1M
1U
1>
0E
1H
0Q
1R
0[
0$
#60000
0B
1V
18
0:
1(
05
0.
13
1!
1D
0#
1;
0C
0=
0M
0U
0X
0>
1G
0H
1Q
0R
1Y
1$
#60500
0F
1?
1T
1Z
0@
0S
1A
1M
1W
1>
0G
1H
0Q
1R
0Y
0$
#61000
0V
1L
1:
1B
09
1.
03
08
0,
1#
0(
15
1=
1X
0!
0A
0D
0M
0W
0;
0>
1E
0H
1Q
0R
1[
1$
