f_counter/my_counter.vcd
$date
	Sat Jan  2 16:52:14 2021
$end
$version
	Icarus Verilog
$end
$timescale
	10ps
$end
$scope module t_my_counter $end
$var wire 1 ! Q_C $end
$var wire 1 " Q_B $end
$var wire 1 # Q_A $end
$var reg 1 $ En $end
$var reg 1 % rst $end
$scope module ff1 $end
$var wire 1 & T_A $end
$var wire 1 ' T_B $end
$var wire 1 ( T_C $end
$var wire 1 ) Tc_1 $end
$var wire 1 * Tc_2 $end
$var wire 1 $ clk $end
$var wire 1 + not_A $end
$var wire 1 , not_B $end
$var wire 1 - not_C $end
$var wire 1 % rst $end
$var wire 1 ! Q_C $end
$var wire 1 " Q_B $end
$var wire 1 # Q_A $end
$scope module ffA $end
$var wire 1 & T $end
$var wire 1 $ clk $end
$var wire 1 . not_rst $end
$var wire 1 # real_Q $end
$var wire 1 % rst $end
$var wire 1 / xor_T $end
$var wire 1 0 Q $end
$scope module DFF $end
$var wire 1 / D $end
$var wire 1 $ clk $end
$var wire 1 1 not_clk $end
$var wire 1 2 tmp $end
$var wire 1 0 Q $end
$scope module first_latch $end
$var wire 1 / D $end
$var wire 1 1 En $end
$var wire 1 2 Q $end
$var wire 1 3 Q_bar $end
$var wire 1 4 down_wire $end
$var wire 1 5 not_D $end
$var wire 1 6 up_wire $end
$upscope $end
$scope module second_latch $end
$var wire 1 2 D $end
$var wire 1 $ En $end
$var wire 1 0 Q $end
$var wire 1 7 Q_bar $end
$var wire 1 8 down_wire $end
$var wire 1 9 not_D $end
$var wire 1 : up_wire $end
$upscope $end
$upscope $end
$upscope $end
$scope module ffB $end
$var wire 1 ' T $end
$var wire 1 $ clk $end
$var wire 1 ; not_rst $end
$var wire 1 " real_Q $end
$var wire 1 % rst $end
$var wire 1 < xor_T $end
$var wire 1 = Q $end
$scope module DFF $end
$var wire 1 < D $end
$var wire 1 $ clk $end
$var wire 1 > not_clk $end
$var wire 1 ? tmp $end
$var wire 1 = Q $end
$scope module first_latch $end
$var wire 1 < D $end
$var wire 1 > En $end
$var wire 1 ? Q $end
$var wire 1 @ Q_bar $end
$var wire 1 A down_wire $end
$var wire 1 B not_D $end
$var wire 1 C up_wire $end
$upscope $end
$scope module second_latch $end
$var wire 1 ? D $end
$var wire 1 $ En $end
$var wire 1 = Q $end
$var wire 1 D Q_bar $end
$var wire 1 E down_wire $end
$var wire 1 F not_D $end
$var wire 1 G up_wire $end
$upscope $end
$upscope $end
$upscope $end
$scope module ffC $end
$var wire 1 ( T $end
$var wire 1 $ clk $end
$var wire 1 H not_rst $end
$var wire 1 ! real_Q $end
$var wire 1 % rst $end
$var wire 1 I xor_T $end
$var wire 1 J Q $end
$scope module DFF $end
$var wire 1 I D $end
$var wire 1 $ clk $end
$var wire 1 K not_clk $end
$var wire 1 L tmp $end
$var wire 1 J Q $end
$scope module first_latch $end
$var wire 1 I D $end
$var wire 1 K En $end
$var wire 1 L Q $end
$var wire 1 M Q_bar $end
$var wire 1 N down_wire $end
$var wire 1 O not_D $end
$var wire 1 P up_wire $end
$upscope $end
$scope module second_latch $end
$var wire 1 L D $end
$var wire 1 $ En $end
$var wire 1 J Q $end
$var wire 1 Q Q_bar $end
$var wire 1 R down_wire $end
$var wire 1 S not_D $end
$var wire 1 T up_wire $end
$upscope $end
$upscope $end
$upscope $end
$upscope $end
$upscope $end
$enddefinitions $end
#0
$dumpvars
xT
xS
xR
xQ
0P
1O
0N
xM
xL
0K
xJ
0I
0H
xG
xF
xE
xD
0C
0B
0A
x@
x?
0>
x=
1<
0;
x:
x9
x8
x7
06
15
04
x3
x2
01
x0
0/
0.
1-
1,
1+
0*
0)
0(
1'
0&
1%
1$
0#
0"
0!
$end
#500
0F
13
19
1?
1M
1S
02
0@
0L
16
1A
1P
11
0:
08
1>
0G
0E
1K
0T
0R
0$
#1000
05
0B
0'
0O
1(
17
1=
1Q
1/
1+
1<
1*
1&
0,
1I
0)
1-
06
00
0A
0D
0P
0J
0#
1"
0!
01
1:
0>
1E
0K
1T
1.
1;
1H
1$
0%
#1500
09
0S
12
1L
03
0M
14
1A
1N
11
0:
1>
0E
1K
0T
0$
#2000
1B
0(
05
0O
0<
0&
0*
1/
0+
1I
1'
0-
1#
1!
10
1J
04
07
0A
0N
0Q
01
18
0>
1E
0K
1R
1$
#2500
1@
1F
0?
14
1C
1N
11
08
1>
0E
1K
0R
0$
#3000
1O
0I
1(
0B
1)
1<
1,
1D
0"
04
0C
0=
0N
01
18
0>
1G
0K
1R
1$
#3500
0F
1?
1M
1S
0@
0L
14
1A
1P
11
08
1>
0G
1K
0R
0$
#4000
15
1B
0/
0<
0,
1O
0(
1&
1"
0I
0)
1-
1=
1Q
0!
04
0A
0D
0P
0J
01
18
0>
1E
0K
1T
1$
#4500
13
19
1@
1F
02
0?
16
1C
1P
11
08
1>
0E
1K
0T
0$
#5000
0B
1+
1<
0&
1,
17
0#
1D
0"
06
00
0C
0=
0P
01
1:
0>
1G
0K
1T
1$
#5500
0F
1?
0@
16
1A
1P
11
0:
1>
0G
1K
0T
0$
#6000
0O
1I
05
0B
1(
1/
0'
1<
1*
1&
0,
1"
1=
06
0A
0D
0P
01
1:
0>
1E
0K
1T
1$
#6500
09
0S
12
1L
03
0M
14
1A
1N
11
0:
1>
0E
1K
0T
0$
#7000
1B
0(
05
0O
0<
0&
0*
1/
0+
1I
1'
0-
1#
1!
10
1J
04
07
0A
0N
0Q
01
18
0>
1E
0K
1R
1$
#7500
1@
1F
0?
14
1C
1N
11
08
1>
0E
1K
0R
0$
#8000
1O
0I
1(
0B
1)
1<
1,
1D
0"
04
0C
0=
0N
01
18
0>
1G
0K
1R
1$
#8500
0F
1?
1M
1S
0@
0L
14
1A
1P
11
08
1>
0G
1K
0R
0$
#9000
15
1B
0/
0<
0,
1O
0(
1&
1"
0I
0)
1-
1=
1Q
0!
04
0A
0D
0P
0J
01
18
0>
1E
0K
1T
1$
#9500
13
19
1@
1F
02
0?
16
1C
1P
11
08
1>
0E
1K
0T
0$
#10000
0B
1+
1<
0&
1,
17
0#
1D
0"
06
00
0C
0=
0P
01
1:
0>
1G
0K
1T
1$
#10500
0F
1?
0@
16
1A
1P
11
0:
1>
0G
1K
0T
0$
#11000
0O
1I
05
0B
1(
1/
0'
1<
1*
1&
0,
1"
1=
06
0A
0D
0P
01
1:
0>
1E
0K
1T
1$
#11500
09
0S
12
1L
03
0M
14
1A
1N
11
0:
1>
0E
1K
0T
0$
#12000
1B
0(
05
0O
0<
0&
0*
1/
0+
1I
1'
0-
1#
1!
10
1J
04
07
0A
0N
0Q
01
18
0>
1E
0K
1R
1$
#12500
1@
1F
0?
14
1C
1N
11
08
1>
0E
1K
0R
0$
#13000
1O
0I
1(
0B
1)
1<
1,
1D
0"
04
0C
0=
0N
01
18
0>
1G
0K
1R
1$
#13500
0F
1?
1M
1S
0@
0L
14
1A
1P
11
08
1>
0G
1K
0R
0$
#14000
15
1B
0/
0<
0,
1O
0(
1&
1"
0I
0)
1-
1=
1Q
0!
04
0A
0D
0P
0J
01
18
0>
1E
0K
1T
1$
#14500
13
19
1@
1F
02
0?
16
1C
1P
11
08
1>
0E
1K
0T
0$
#15000
0B
1+
1<
0&
1,
17
0#
1D
0"
06
00
0C
0=
0P
01
1:
0>
1G
0K
1T
1$
#15500
0F
1?
0@
16
1A
1P
11
0:
1>
0G
1K
0T
0$
#16000
0O
1I
05
0B
1(
1/
0'
1<
1*
1&
0,
1"
1=
06
0A
0D
0P
01
1:
0>
1E
0K
1T
1$
#16500
09
0S
12
1L
03
0M
14
1A
1N
11
0:
1>
0E
1K
0T
0$
#17000
1B
0(
05
0O
0<
0&
0*
1/
0+
1I
1'
0-
1#
1!
10
1J
04
07
0A
0N
0Q
01
18
0>
1E
0K
1R
1$
#17500
1@
1F
0?
14
1C
1N
11
08
1>
0E
1K
0R
0$
#18000
1O
0I
1(
0B
1)
1<
1,
1D
0"
04
0C
0=
0N
01
18
0>
1G
0K
1R
1$
#18500
0F
1?
1M
1S
0@
0L
14
1A
1P
11
08
1>
0G
1K
0R
0$
#19000
15
1B
0/
0<
0,
1O
0(
1&
1"
0I
0)
1-
1=
1Q
0!
04
0A
0D
0P
0J
01
18
0>
1E
0K
1T
1$
#19500
13
19
1@
1F
02
0?
16
1C
1P
11
08
1>
0E
1K
0T
0$
#20000
0B
1+
1<
0&
1,
17
0#
1D
0"
06
00
0C
0=
0P
01
1:
0>
1G
0K
1T
1$
#20500
0F
1?
0@
16
1A
1P
11
0:
1>
0G
1K
0T
0$
#21000
0O
1I
05
0B
1(
1/
0'
1<
1*
1&
0,
1"
1=
06
0A
0D
0P
01
1:
0>
1E
0K
1T
1$
#21500
09
0S
12
1L
03
0M
14
1A
1N
11
0:
1>
0E
1K
0T
0$
#22000
1B
0(
05
0O
0<
0&
0*
1/
0+
1I
1'
0-
1#
1!
10
1J
04
07
0A
0N
0Q
01
18
0>
1E
0K
1R
1$
#22500
1@
1F
0?
14
1C
1N
11
08
1>
0E
1K
0R
0$
#23000
1O
0I
1(
0B
1)
1<
1,
1D
0"
04
0C
0=
0N
01
18
0>
1G
0K
1R
1$
#23500
0F
1?
1M
1S
0@
0L
14
1A
1P
11
08
1>
0G
1K
0R
0$
#24000
15
1B
0/
0<
0,
1O
0(
1&
1"
0I
0)
1-
1=
1Q
0!
04
0A
0D
0P
0J
01
18
0>
1E
0K
1T
1$
#24500
13
19
1@
1F
02
0?
16
1C
1P
11
08
1>
0E
1K
0T
0$
#25000
0B
1+
1<
0&
1,
17
0#
1D
0"
06
00
0C
0=
0P
01
1:
0>
1G
0K
1T
1$
#25500
0F
1?
0@
16
1A
1P
11
0:
1>
0G
1K
0T
0$
#26000
0O
1I
05
0B
1(
1/
0'
1<
1*
1&
0,
1"
1=
06
0A
0D
0P
01
1:
0>
1E
0K
1T
1$
#26500
09
0S
12
1L
03
0M
14
1A
1N
11
0:
1>
0E
1K
0T
0$
#27000
1B
0(
05
0O
0<
0&
0*
1/
0+
1I
1'
0-
1#
1!
10
1J
04
07
0A
0N
0Q
01
18
0>
1E
0K
1R
1$
#27500
1@
1F
0?
14
1C
1N
11
08
1>
0E
1K
0R
0$
#28000
1O
0I
1(
0B
1)
1<
1,
1D
0"
04
0C
0=
0N
01
18
0>
1G
0K
1R
1$
#28500
0F
1?
1M
1S
0@
0L
14
1A
1P
11
08
1>
0G
1K
0R
0$
#29000
15
1B
0/
0<
0,
1O
0(
1&
1"
0I
0)
1-
1=
1Q
0!
04
0A
0D
0P
0J
01
18
0>
1E
0K
1T
1$
#29500
13
19
1@
1F
02
0?
16
1C
1P
11
08
1>
0E
1K
0T
0$
#30000
0B
1+
1<
0&
1,
17
0#
1D
0"
06
00
0C
0=
0P
01
1:
0>
1G
0K
1T
1$
#30500
0F
1?
0@
16
1A
1P
11
0:
1>
0G
1K
0T
0$
#31000
0O
1I
05
0B
1(
1/
0'
1<
1*
1&
0,
1"
1=
06
0A
0D
0P
01
1:
0>
1E
0K
1T
1$
